***********************************************
The rDock program is licensed under GNU-LGPLv3.0. http://rdock.sourceforge.net/
Executable:	rbdock ($Id: //depot/dev/client3/rdock/2013.1/src/exe/rbdock.cxx#4 $)
Library:	libRbt.so/2013.1/901 2013/11/27
RBT_ROOT:	/home/jovyan/rDock_2013.1_src
RBT_HOME:	/home/jovyan
Current dir:	/home/jovyan/work/pdbbind_v2017_refined/1w4p
Date:		Thu May 31 12:23:35 2018
***********************************************


Command line args:
 -i 1w4p_ligand.sdf
 -r 03_create_rdock_cavity.prm
 -p dock.prm
 -o 04_out_1w4p
 -n 1
Reading polar hydrogens only from ligand SD file

DOCKING PROTOCOL:
/home/jovyan/rDock_2013.1_src/data/scripts/dock.prm
Free docking (indexed VDW)

RECEPTOR:
03_create_rdock_cavity.prm
1w4p

DOCKING SITE
Total volume 1573.12 A^3
Cavity #1	Size=12585 points; Vol=1573.12 A^3; Min=(29,-11.5,6); Max=(46.5,10,21); Center=(38.6685,-0.864442,13.7196); Extent=(17.5,21.5,15)

RbtMOL2FileSource: INFO Removing orphan hydrogen UNK:ARG_10:2HH1

No solvent

------------- Terminate filter 0------------

if (SCORE.NRUNS - 0 ) > 0 then
	0.0 
else
	-1.0 
end


**************************************************
RECORD #1
**WARNING** RBT_MODEL_ERROR at ../src/lib/RbtMdlFileSource.cxx, line 413
P17 makes too many bonds
NAME:   1w4p_ligand
RANDOM_NUMBER_SEED:           1527769415
**WARNING** RBT_MODEL_ERROR at ../src/lib/RbtMdlFileSource.cxx, line 413
P17 makes too many bonds

END OF RUN
