***********************************************
The rDock program is licensed under GNU-LGPLv3.0. http://rdock.sourceforge.net/
Executable:	rbcavity ($Id: //depot/dev/client3/rdock/2013.1/src/exe/rbcavity.cxx#3 $)
Library:	libRbt.so/2013.1/901 2013/11/27
RBT_ROOT:	/home/jovyan/rDock_2013.1_src
RBT_HOME:	/home/jovyan
Current dir:	/home/jovyan/work/pdbbind_v2017_refined/1q5k
Date:		Thu May 31 10:16:22 2018
***********************************************

Command line arguments:
-r 03_create_rdock_cavity.prm
-was
-d
RbtMOL2FileSource: INFO Removing orphan hydrogen UNK:ARG_92:1HH1
RbtMOL2FileSource: INFO Removing orphan hydrogen UNK:ARG_102:2HH1
RbtMOL2FileSource: INFO Removing orphan hydrogen UNK:ARG_113:2HH1
RbtMOL2FileSource: INFO Removing orphan hydrogen UNK:ARG_144:1HH1
RbtMOL2FileSource: INFO Removing orphan hydrogen UNK:ARG_148:1HH1
RbtMOL2FileSource: INFO Removing orphan hydrogen UNK:ARG_148:2HH1
RbtMOL2FileSource: INFO Removing orphan hydrogen UNK:ARG_220:1HH1
RbtMOL2FileSource: INFO Removing orphan hydrogen UNK:ARG_220:2HH1
RbtMOL2FileSource: INFO Removing orphan hydrogen UNK:ARG_278:1HH1
RbtMOL2FileSource: INFO Removing orphan hydrogen UNK:ARG_306:1HH1
RbtMOL2FileSource: INFO Removing orphan hydrogen UNK:ARG_306:2HH1
RbtMOL2FileSource: INFO Removing orphan hydrogen UNK:ARG_306:H01
RbtMOL2FileSource: INFO Removing orphan hydrogen UNK:ARG_308:1HH1
RbtMOL2FileSource: INFO Removing orphan hydrogen UNK:ARG_308:2HH1
RbtMOL2FileSource: INFO Removing orphan hydrogen UNK:ARG_328:1HH1
RbtMOL2FileSource: INFO Removing orphan hydrogen UNK:ARG_344:1HH1
RbtMOL2FileSource: INFO Removing orphan hydrogen UNK:ARG_344:2HH1

MAPPER
CLASS	RbtLigandSiteMapper
ENABLED	TRUE
GRIDSTEP	0.5
MAX_CAVITIES	1
MIN_VOLUME	100
NAME	MAPPER
RADIUS	6.0
REF_MOL	1q5k_ligand.sdf
SMALL_SPHERE	1.0
TRACE	0
VOL_INCR	0.0

RBT_MODEL_ERROR at ../src/lib/RbtMdlFileSource.cxx, line 298
C14 makes a bond with an unknown bond order
RBT_MODEL_ERROR at ../src/lib/RbtMdlFileSource.cxx, line 298
C15 makes a bond with an unknown bond order
RBT_MODEL_ERROR at ../src/lib/RbtMdlFileSource.cxx, line 298
C16 makes a bond with an unknown bond order
RBT_MODEL_ERROR at ../src/lib/RbtMdlFileSource.cxx, line 298
C17 makes a bond with an unknown bond order
RBT_MODEL_ERROR at ../src/lib/RbtMdlFileSource.cxx, line 298
C18 makes a bond with an unknown bond order
RBT_MODEL_ERROR at ../src/lib/RbtMdlFileSource.cxx, line 298
C19 makes a bond with an unknown bond order
**WARNING** RBT_MODEL_ERROR at ../src/lib/RbtMdlFileSource.cxx, line 413
N8 makes too many bonds
**WARNING** RBT_MODEL_ERROR at ../src/lib/RbtMdlFileSource.cxx, line 413
C14 makes too many bonds
**WARNING** RBT_MODEL_ERROR at ../src/lib/RbtMdlFileSource.cxx, line 413
C15 makes too many bonds
**WARNING** RBT_MODEL_ERROR at ../src/lib/RbtMdlFileSource.cxx, line 413
C16 makes too many bonds
**WARNING** RBT_MODEL_ERROR at ../src/lib/RbtMdlFileSource.cxx, line 413
C17 makes too many bonds
**WARNING** RBT_MODEL_ERROR at ../src/lib/RbtMdlFileSource.cxx, line 413
C18 makes too many bonds
**WARNING** RBT_MODEL_ERROR at ../src/lib/RbtMdlFileSource.cxx, line 413
C19 makes too many bonds

DOCKING SITE
Total volume 1442.38 A^3
Cavity #1	Size=11539 points; Vol=1442.38 A^3; Min=(12,13,0); Max=(34,30.5,19); Center=(25.3903,21.8771,11.1365); Extent=(22,17.5,19)

Cav = 11539; total = 11539
