***********************************************
The rDock program is licensed under GNU-LGPLv3.0. http://rdock.sourceforge.net/
Executable:	rbdock ($Id: //depot/dev/client3/rdock/2013.1/src/exe/rbdock.cxx#4 $)
Library:	libRbt.so/2013.1/901 2013/11/27
RBT_ROOT:	/home/jovyan/rDock_2013.1_src
RBT_HOME:	/home/jovyan
Current dir:	/home/jovyan/work/pdbbind_v2017_refined/1elc
Date:		Thu May 31 12:08:18 2018
***********************************************


Command line args:
 -i 1elc_ligand.sdf
 -r 03_create_rdock_cavity.prm
 -p dock.prm
 -o 04_out_1elc
 -n 1
Reading polar hydrogens only from ligand SD file

DOCKING PROTOCOL:
/home/jovyan/rDock_2013.1_src/data/scripts/dock.prm
Free docking (indexed VDW)

RECEPTOR:
03_create_rdock_cavity.prm
1elc

DOCKING SITE
Total volume 2211 A^3
Cavity #1	Size=17688 points; Vol=2211 A^3; Min=(26.5,9,25); Max=(49.5,30.5,43.5); Center=(38.5914,19.5872,34.1696); Extent=(23,21.5,18.5)

RbtMOL2FileSource: INFO Removing orphan hydrogen UNK:ARG_226:1HH1
RbtMOL2FileSource: INFO Removing orphan hydrogen UNK:ARG_233:1HH1

No solvent

------------- Terminate filter 0------------

if (SCORE.NRUNS - 0 ) > 0 then
	0.0 
else
	-1.0 
end


**************************************************
RECORD #1
RBT_MODEL_ERROR at ../src/lib/RbtMdlFileSource.cxx, line 298
C21 makes a bond with an unknown bond order
RBT_MODEL_ERROR at ../src/lib/RbtMdlFileSource.cxx, line 298
C22 makes a bond with an unknown bond order
RBT_MODEL_ERROR at ../src/lib/RbtMdlFileSource.cxx, line 298
C23 makes a bond with an unknown bond order
RBT_MODEL_ERROR at ../src/lib/RbtMdlFileSource.cxx, line 298
C24 makes a bond with an unknown bond order
RBT_MODEL_ERROR at ../src/lib/RbtMdlFileSource.cxx, line 298
C25 makes a bond with an unknown bond order
RBT_MODEL_ERROR at ../src/lib/RbtMdlFileSource.cxx, line 298
C26 makes a bond with an unknown bond order
RBT_MODEL_ERROR at ../src/lib/RbtMdlFileSource.cxx, line 298
C28 makes a bond with an unknown bond order
RBT_MODEL_ERROR at ../src/lib/RbtMdlFileSource.cxx, line 298
C29 makes a bond with an unknown bond order
RBT_MODEL_ERROR at ../src/lib/RbtMdlFileSource.cxx, line 298
C30 makes a bond with an unknown bond order
RBT_MODEL_ERROR at ../src/lib/RbtMdlFileSource.cxx, line 298
C31 makes a bond with an unknown bond order
RBT_MODEL_ERROR at ../src/lib/RbtMdlFileSource.cxx, line 298
C32 makes a bond with an unknown bond order
RBT_MODEL_ERROR at ../src/lib/RbtMdlFileSource.cxx, line 298
C33 makes a bond with an unknown bond order
**WARNING** RBT_MODEL_ERROR at ../src/lib/RbtMdlFileSource.cxx, line 413
C21 makes too many bonds
**WARNING** RBT_MODEL_ERROR at ../src/lib/RbtMdlFileSource.cxx, line 413
C22 makes too many bonds
**WARNING** RBT_MODEL_ERROR at ../src/lib/RbtMdlFileSource.cxx, line 413
C23 makes too many bonds
**WARNING** RBT_MODEL_ERROR at ../src/lib/RbtMdlFileSource.cxx, line 413
C24 makes too many bonds
**WARNING** RBT_MODEL_ERROR at ../src/lib/RbtMdlFileSource.cxx, line 413
C25 makes too many bonds
**WARNING** RBT_MODEL_ERROR at ../src/lib/RbtMdlFileSource.cxx, line 413
C26 makes too many bonds
**WARNING** RBT_MODEL_ERROR at ../src/lib/RbtMdlFileSource.cxx, line 413
C28 makes too many bonds
**WARNING** RBT_MODEL_ERROR at ../src/lib/RbtMdlFileSource.cxx, line 413
C29 makes too many bonds
**WARNING** RBT_MODEL_ERROR at ../src/lib/RbtMdlFileSource.cxx, line 413
C30 makes too many bonds
**WARNING** RBT_MODEL_ERROR at ../src/lib/RbtMdlFileSource.cxx, line 413
C31 makes too many bonds
**WARNING** RBT_MODEL_ERROR at ../src/lib/RbtMdlFileSource.cxx, line 413
C32 makes too many bonds
**WARNING** RBT_MODEL_ERROR at ../src/lib/RbtMdlFileSource.cxx, line 413
C33 makes too many bonds
NAME:   1elc_ligand
RANDOM_NUMBER_SEED:           1527768498
RBT_MODEL_ERROR at ../src/lib/RbtMdlFileSource.cxx, line 298
C21 makes a bond with an unknown bond order
RBT_MODEL_ERROR at ../src/lib/RbtMdlFileSource.cxx, line 298
C22 makes a bond with an unknown bond order
RBT_MODEL_ERROR at ../src/lib/RbtMdlFileSource.cxx, line 298
C23 makes a bond with an unknown bond order
RBT_MODEL_ERROR at ../src/lib/RbtMdlFileSource.cxx, line 298
C24 makes a bond with an unknown bond order
RBT_MODEL_ERROR at ../src/lib/RbtMdlFileSource.cxx, line 298
C25 makes a bond with an unknown bond order
RBT_MODEL_ERROR at ../src/lib/RbtMdlFileSource.cxx, line 298
C26 makes a bond with an unknown bond order
RBT_MODEL_ERROR at ../src/lib/RbtMdlFileSource.cxx, line 298
C28 makes a bond with an unknown bond order
RBT_MODEL_ERROR at ../src/lib/RbtMdlFileSource.cxx, line 298
C29 makes a bond with an unknown bond order
RBT_MODEL_ERROR at ../src/lib/RbtMdlFileSource.cxx, line 298
C30 makes a bond with an unknown bond order
RBT_MODEL_ERROR at ../src/lib/RbtMdlFileSource.cxx, line 298
C31 makes a bond with an unknown bond order
RBT_MODEL_ERROR at ../src/lib/RbtMdlFileSource.cxx, line 298
C32 makes a bond with an unknown bond order
RBT_MODEL_ERROR at ../src/lib/RbtMdlFileSource.cxx, line 298
C33 makes a bond with an unknown bond order
**WARNING** RBT_MODEL_ERROR at ../src/lib/RbtMdlFileSource.cxx, line 413
C21 makes too many bonds
**WARNING** RBT_MODEL_ERROR at ../src/lib/RbtMdlFileSource.cxx, line 413
C22 makes too many bonds
**WARNING** RBT_MODEL_ERROR at ../src/lib/RbtMdlFileSource.cxx, line 413
C23 makes too many bonds
**WARNING** RBT_MODEL_ERROR at ../src/lib/RbtMdlFileSource.cxx, line 413
C24 makes too many bonds
**WARNING** RBT_MODEL_ERROR at ../src/lib/RbtMdlFileSource.cxx, line 413
C25 makes too many bonds
**WARNING** RBT_MODEL_ERROR at ../src/lib/RbtMdlFileSource.cxx, line 413
C26 makes too many bonds
**WARNING** RBT_MODEL_ERROR at ../src/lib/RbtMdlFileSource.cxx, line 413
C28 makes too many bonds
**WARNING** RBT_MODEL_ERROR at ../src/lib/RbtMdlFileSource.cxx, line 413
C29 makes too many bonds
**WARNING** RBT_MODEL_ERROR at ../src/lib/RbtMdlFileSource.cxx, line 413
C30 makes too many bonds
**WARNING** RBT_MODEL_ERROR at ../src/lib/RbtMdlFileSource.cxx, line 413
C31 makes too many bonds
**WARNING** RBT_MODEL_ERROR at ../src/lib/RbtMdlFileSource.cxx, line 413
C32 makes too many bonds
**WARNING** RBT_MODEL_ERROR at ../src/lib/RbtMdlFileSource.cxx, line 413
C33 makes too many bonds

END OF RUN
