***********************************************
The rDock program is licensed under GNU-LGPLv3.0. http://rdock.sourceforge.net/
Executable:	rbdock ($Id: //depot/dev/client3/rdock/2013.1/src/exe/rbdock.cxx#4 $)
Library:	libRbt.so/2013.1/901 2013/11/27
RBT_ROOT:	/home/jovyan/rDock_2013.1_src
RBT_HOME:	/home/jovyan
Current dir:	/home/jovyan/work/pdbbind_v2017_refined/3m6r
Date:		Thu May 31 12:51:26 2018
***********************************************


Command line args:
 -i 3m6r_ligand.sdf
 -r 03_create_rdock_cavity.prm
 -p dock.prm
 -o 04_out_3m6r
 -n 1
Reading polar hydrogens only from ligand SD file

DOCKING PROTOCOL:
/home/jovyan/rDock_2013.1_src/data/scripts/dock.prm
Free docking (indexed VDW)

RECEPTOR:
03_create_rdock_cavity.prm
3m6r

DOCKING SITE
Total volume 1462.62 A^3
Cavity #1	Size=11701 points; Vol=1462.62 A^3; Min=(-29.5,-2,-39); Max=(-10,13.5,-21); Center=(-21.6164,5.75553,-30.1628); Extent=(19.5,15.5,18)

RbtMOL2FileSource: INFO Removing orphan hydrogen UNK:ARG_12:1HH1
RbtMOL2FileSource: INFO Removing orphan hydrogen UNK:ARG_156:1HH1

No solvent

------------- Terminate filter 0------------

if (SCORE.NRUNS - 0 ) > 0 then
	0.0 
else
	-1.0 
end


**************************************************
RECORD #1
NAME:   3m6r_ligand
RANDOM_NUMBER_SEED:           1527771086

END OF RUN
