***********************************************
The rDock program is licensed under GNU-LGPLv3.0. http://rdock.sourceforge.net/
Executable:	rbdock ($Id: //depot/dev/client3/rdock/2013.1/src/exe/rbdock.cxx#4 $)
Library:	libRbt.so/2013.1/901 2013/11/27
RBT_ROOT:	/home/jovyan/rDock_2013.1_src
RBT_HOME:	/home/jovyan
Current dir:	/home/jovyan/work/pdbbind_v2017_refined/2hb1
Date:		Thu May 31 12:29:42 2018
***********************************************


Command line args:
 -i 2hb1_ligand.sdf
 -r 03_create_rdock_cavity.prm
 -p dock.prm
 -o 04_out_2hb1
 -n 1
Reading polar hydrogens only from ligand SD file

DOCKING PROTOCOL:
/home/jovyan/rDock_2013.1_src/data/scripts/dock.prm
Free docking (indexed VDW)

RECEPTOR:
03_create_rdock_cavity.prm
2hb1

DOCKING SITE
Total volume 799.25 A^3
Cavity #1	Size=6394 points; Vol=799.25 A^3; Min=(38,6.5,-5.5); Max=(52.5,22.5,8); Center=(45.4026,14.1218,0.390131); Extent=(14.5,16,13.5)

RbtMOL2FileSource: INFO Removing orphan hydrogen UNK:ARG_24:2HH1
RbtMOL2FileSource: INFO Removing orphan hydrogen UNK:ARG_45:1HH1
RbtMOL2FileSource: INFO Removing orphan hydrogen UNK:ARG_169:1HH1
RbtMOL2FileSource: INFO Removing orphan hydrogen UNK:ARG_169:2HH1

No solvent

------------- Terminate filter 0------------

if (SCORE.NRUNS - 0 ) > 0 then
	0.0 
else
	-1.0 
end


**************************************************
RECORD #1
**WARNING** RBT_MODEL_ERROR at ../src/lib/RbtMdlFileSource.cxx, line 413
C6 makes too many bonds
**WARNING** RBT_MODEL_ERROR at ../src/lib/RbtMdlFileSource.cxx, line 413
C10 makes too many bonds
NAME:   2hb1_ligand
RANDOM_NUMBER_SEED:           1527769782
**WARNING** RBT_MODEL_ERROR at ../src/lib/RbtMdlFileSource.cxx, line 413
C6 makes too many bonds
**WARNING** RBT_MODEL_ERROR at ../src/lib/RbtMdlFileSource.cxx, line 413
C10 makes too many bonds

END OF RUN
