***********************************************
The rDock program is licensed under GNU-LGPLv3.0. http://rdock.sourceforge.net/
Executable:	rbdock ($Id: //depot/dev/client3/rdock/2013.1/src/exe/rbdock.cxx#4 $)
Library:	libRbt.so/2013.1/901 2013/11/27
RBT_ROOT:	/home/jovyan/rDock_2013.1_src
RBT_HOME:	/home/jovyan
Current dir:	/home/jovyan/work/pdbbind_v2017_refined/3oy0
Date:		Thu May 31 12:53:25 2018
***********************************************


Command line args:
 -i 3oy0_ligand.sdf
 -r 03_create_rdock_cavity.prm
 -p dock.prm
 -o 04_out_3oy0
 -n 1
Reading polar hydrogens only from ligand SD file

DOCKING PROTOCOL:
/home/jovyan/rDock_2013.1_src/data/scripts/dock.prm
Free docking (indexed VDW)

RECEPTOR:
03_create_rdock_cavity.prm
3oy0

DOCKING SITE
Total volume 1472.75 A^3
Cavity #1	Size=11782 points; Vol=1472.75 A^3; Min=(-9.5,-4,4); Max=(5,15,21); Center=(-2.44878,6.68469,11.7004); Extent=(14.5,19,17)

RbtMOL2FileSource: INFO Removing orphan hydrogen UNK:ARG_89:1HH1

No solvent

------------- Terminate filter 0------------

if (SCORE.NRUNS - 0 ) > 0 then
	0.0 
else
	-1.0 
end


**************************************************
RECORD #1
RBT_MODEL_ERROR at ../src/lib/RbtMdlFileSource.cxx, line 298
C9 makes a bond with an unknown bond order
RBT_MODEL_ERROR at ../src/lib/RbtMdlFileSource.cxx, line 298
C10 makes a bond with an unknown bond order
RBT_MODEL_ERROR at ../src/lib/RbtMdlFileSource.cxx, line 298
C11 makes a bond with an unknown bond order
RBT_MODEL_ERROR at ../src/lib/RbtMdlFileSource.cxx, line 298
C12 makes a bond with an unknown bond order
RBT_MODEL_ERROR at ../src/lib/RbtMdlFileSource.cxx, line 298
C17 makes a bond with an unknown bond order
RBT_MODEL_ERROR at ../src/lib/RbtMdlFileSource.cxx, line 298
C18 makes a bond with an unknown bond order
**WARNING** RBT_MODEL_ERROR at ../src/lib/RbtMdlFileSource.cxx, line 413
C9 makes too many bonds
**WARNING** RBT_MODEL_ERROR at ../src/lib/RbtMdlFileSource.cxx, line 413
C10 makes too many bonds
**WARNING** RBT_MODEL_ERROR at ../src/lib/RbtMdlFileSource.cxx, line 413
C11 makes too many bonds
**WARNING** RBT_MODEL_ERROR at ../src/lib/RbtMdlFileSource.cxx, line 413
C12 makes too many bonds
**WARNING** RBT_MODEL_ERROR at ../src/lib/RbtMdlFileSource.cxx, line 413
C17 makes too many bonds
**WARNING** RBT_MODEL_ERROR at ../src/lib/RbtMdlFileSource.cxx, line 413
C18 makes too many bonds
NAME:   3oy0_ligand
RANDOM_NUMBER_SEED:           1527771205
RBT_MODEL_ERROR at ../src/lib/RbtMdlFileSource.cxx, line 298
C9 makes a bond with an unknown bond order
RBT_MODEL_ERROR at ../src/lib/RbtMdlFileSource.cxx, line 298
C10 makes a bond with an unknown bond order
RBT_MODEL_ERROR at ../src/lib/RbtMdlFileSource.cxx, line 298
C11 makes a bond with an unknown bond order
RBT_MODEL_ERROR at ../src/lib/RbtMdlFileSource.cxx, line 298
C12 makes a bond with an unknown bond order
RBT_MODEL_ERROR at ../src/lib/RbtMdlFileSource.cxx, line 298
C17 makes a bond with an unknown bond order
RBT_MODEL_ERROR at ../src/lib/RbtMdlFileSource.cxx, line 298
C18 makes a bond with an unknown bond order
**WARNING** RBT_MODEL_ERROR at ../src/lib/RbtMdlFileSource.cxx, line 413
C9 makes too many bonds
**WARNING** RBT_MODEL_ERROR at ../src/lib/RbtMdlFileSource.cxx, line 413
C10 makes too many bonds
**WARNING** RBT_MODEL_ERROR at ../src/lib/RbtMdlFileSource.cxx, line 413
C11 makes too many bonds
**WARNING** RBT_MODEL_ERROR at ../src/lib/RbtMdlFileSource.cxx, line 413
C12 makes too many bonds
**WARNING** RBT_MODEL_ERROR at ../src/lib/RbtMdlFileSource.cxx, line 413
C17 makes too many bonds
**WARNING** RBT_MODEL_ERROR at ../src/lib/RbtMdlFileSource.cxx, line 413
C18 makes too many bonds

END OF RUN
