***********************************************
The rDock program is licensed under GNU-LGPLv3.0. http://rdock.sourceforge.net/
Executable:	rbdock ($Id: //depot/dev/client3/rdock/2013.1/src/exe/rbdock.cxx#4 $)
Library:	libRbt.so/2013.1/901 2013/11/27
RBT_ROOT:	/home/jovyan/rDock_2013.1_src
RBT_HOME:	/home/jovyan
Current dir:	/home/jovyan/work/pdbbind_v2017_refined/3m1k
Date:		Thu May 31 12:51:13 2018
***********************************************


Command line args:
 -i 3m1k_ligand.sdf
 -r 03_create_rdock_cavity.prm
 -p dock.prm
 -o 04_out_3m1k
 -n 1
Reading polar hydrogens only from ligand SD file

DOCKING PROTOCOL:
/home/jovyan/rDock_2013.1_src/data/scripts/dock.prm
Free docking (indexed VDW)

RECEPTOR:
03_create_rdock_cavity.prm
3m1k

DOCKING SITE
Total volume 591.625 A^3
Cavity #1	Size=4733 points; Vol=591.625 A^3; Min=(11.5,-3.5,8.5); Max=(22,11,21); Center=(16.5011,4.72333,13.6614); Extent=(10.5,14.5,12.5)


No solvent

------------- Terminate filter 0------------

if (SCORE.NRUNS - 0 ) > 0 then
	0.0 
else
	-1.0 
end


**************************************************
RECORD #1
NAME:   3m1k_ligand
RANDOM_NUMBER_SEED:           1527771073

END OF RUN
