***********************************************
The rDock program is licensed under GNU-LGPLv3.0. http://rdock.sourceforge.net/
Executable:	rbdock ($Id: //depot/dev/client3/rdock/2013.1/src/exe/rbdock.cxx#4 $)
Library:	libRbt.so/2013.1/901 2013/11/27
RBT_ROOT:	/home/jovyan/rDock_2013.1_src
RBT_HOME:	/home/jovyan
Current dir:	/home/jovyan/work/pdbbind_v2017_refined/3m37
Date:		Thu May 31 12:51:16 2018
***********************************************


Command line args:
 -i 3m37_ligand.sdf
 -r 03_create_rdock_cavity.prm
 -p dock.prm
 -o 04_out_3m37
 -n 1
Reading polar hydrogens only from ligand SD file

DOCKING PROTOCOL:
/home/jovyan/rDock_2013.1_src/data/scripts/dock.prm
Free docking (indexed VDW)

RECEPTOR:
03_create_rdock_cavity.prm
3m37

DOCKING SITE
Total volume 2068.5 A^3
Cavity #1	Size=16548 points; Vol=2068.5 A^3; Min=(-3,30.5,50); Max=(16.5,51.5,72.5); Center=(5.75489,40.8266,60.3281); Extent=(19.5,21,22.5)

WARNING SetupPartialIonicGroups: Inconsistent subunit names in atom list headed by UNK:GLN_61:N
WARNING SetupPartialIonicGroups: Inconsistent subunit names in atom list headed by UNK:VAL_87:N
WARNING SetupPartialIonicGroups: Inconsistent subunit names in atom list headed by UNK:VAL_88:N
WARNING SetupPartialIonicGroups: Inconsistent subunit names in atom list headed by UNK:ILE_89:N
WARNING SetupPartialIonicGroups: Inconsistent subunit names in atom list headed by UNK:LYS_90:N
WARNING SetupPartialIonicGroups: Inconsistent subunit names in atom list headed by UNK:HIS_91:N
WARNING SetupPartialIonicGroups: Inconsistent subunit names in atom list headed by UNK:ASN_92:N
WARNING SetupPartialIonicGroups: Inconsistent subunit names in atom list headed by UNK:ARG_93:N
WARNING SetupPartialIonicGroups: Inconsistent subunit names in atom list headed by UNK:PHE_94:N
WARNING SetupPartialIonicGroups: Inconsistent subunit names in atom list headed by UNK:THR_95:N
WARNING SetupPartialIonicGroups: Inconsistent subunit names in atom list headed by UNK:LYS_96:N
WARNING SetupPartialIonicGroups: Inconsistent subunit names in atom list headed by UNK:GLU_97:N
WARNING SetupPartialIonicGroups: Inconsistent subunit names in atom list headed by UNK:THR_98:N
WARNING SetupPartialIonicGroups: Inconsistent subunit names in atom list headed by UNK:TYR_99:N
WARNING SetupPartialIonicGroups: Inconsistent subunit names in atom list headed by UNK:ASP_100:N
WARNING SetupPartialIonicGroups: Inconsistent subunit names in atom list headed by UNK:PHE_101:N
WARNING SetupPartialIonicGroups: Inconsistent subunit names in atom list headed by UNK:ASP_102:N
WARNING SetupPartialIonicGroups: Inconsistent subunit names in atom list headed by UNK:ILE_103:N
WARNING SetupPartialIonicGroups: Inconsistent subunit names in atom list headed by UNK:ALA_104:N
WARNING SetupPartialIonicGroups: Inconsistent subunit names in atom list headed by UNK:VAL_105:N
WARNING SetupPartialIonicGroups: Inconsistent subunit names in atom list headed by UNK:LEU_106:N
WARNING SetupPartialIonicGroups: Inconsistent subunit names in atom list headed by UNK:ARG_107:N
WARNING SetupPartialIonicGroups: Inconsistent subunit names in atom list headed by UNK:LEU_108:N
WARNING SetupPartialIonicGroups: Inconsistent subunit names in atom list headed by UNK:LYS_109:N
WARNING SetupPartialIonicGroups: Inconsistent subunit names in atom list headed by UNK:THR_110:N
WARNING SetupPartialIonicGroups: Inconsistent subunit names in atom list headed by UNK:PRO_111:N
WARNING SetupPartialIonicGroups: Inconsistent subunit names in atom list headed by UNK:ILE_112:N
WARNING SetupPartialIonicGroups: Inconsistent subunit names in atom list headed by UNK:THR_113:N
WARNING SetupPartialIonicGroups: Inconsistent subunit names in atom list headed by UNK:PHE_114:N
WARNING SetupPartialIonicGroups: Inconsistent subunit names in atom list headed by UNK:ARG_115:N
WARNING SetupPartialIonicGroups: Inconsistent subunit names in atom list headed by UNK:MET_116:N
WARNING SetupPartialIonicGroups: Inconsistent subunit names in atom list headed by UNK:ASN_117:N
WARNING SetupPartialIonicGroups: Inconsistent subunit names in atom list headed by UNK:VAL_118:N
WARNING SetupPartialIonicGroups: Inconsistent subunit names in atom list headed by UNK:ALA_119:N
WARNING SetupPartialIonicGroups: Inconsistent subunit names in atom list headed by UNK:PRO_120:N
WARNING SetupPartialIonicGroups: Inconsistent subunit names in atom list headed by UNK:ALA_121:N
WARNING SetupPartialIonicGroups: Inconsistent subunit names in atom list headed by UNK:CYS_122:N
WARNING SetupPartialIonicGroups: Inconsistent subunit names in atom list headed by UNK:LEU_123:N
WARNING SetupPartialIonicGroups: Inconsistent subunit names in atom list headed by UNK:PRO_124:N
WARNING SetupPartialIonicGroups: Inconsistent subunit names in atom list headed by UNK:ARG_125:N
WARNING SetupPartialIonicGroups: Inconsistent subunit names in atom list headed by UNK:ASP_126:N
WARNING SetupPartialIonicGroups: Inconsistent subunit names in atom list headed by UNK:TRP_127:N
WARNING SetupPartialIonicGroups: Inconsistent subunit names in atom list headed by UNK:ALA_128:N
WARNING SetupPartialIonicGroups: Inconsistent subunit names in atom list headed by UNK:GLU_129:N
WARNING SetupPartialIonicGroups: Inconsistent subunit names in atom list headed by UNK:SER_130:N
WARNING SetupPartialIonicGroups: Inconsistent subunit names in atom list headed by UNK:THR_131:N
WARNING SetupPartialIonicGroups: Inconsistent subunit names in atom list headed by UNK:THR_132:N
WARNING SetupPartialIonicGroups: Inconsistent subunit names in atom list headed by UNK:GLN_133:N
WARNING SetupPartialIonicGroups: Inconsistent subunit names in atom list headed by UNK:THR_135:N
WARNING SetupPartialIonicGroups: Inconsistent subunit names in atom list headed by UNK:GLY_136:N
WARNING SetupPartialIonicGroups: Inconsistent subunit names in atom list headed by UNK:ILE_137:N
WARNING SetupPartialIonicGroups: Inconsistent subunit names in atom list headed by UNK:VAL_138:N
WARNING SetupPartialIonicGroups: Inconsistent subunit names in atom list headed by UNK:TYR_185:N
WARNING SetupPartialIonicGroups: Inconsistent subunit names in atom list headed by UNK:LYS_223:N
RbtMOL2FileSource: INFO Removing orphan hydrogen UNK:ARG_63:1HH1
RbtMOL2FileSource: INFO Removing orphan hydrogen UNK:CYS_111:HG
RbtMOL2FileSource: INFO Removing orphan hydrogen UNK:ARG_113:2HH1
RbtMOL2FileSource: INFO Removing orphan hydrogen UNK:ARG_150:1HH1
RbtMOL2FileSource: INFO Removing orphan hydrogen UNK:ARG_202:2HH1

No solvent

------------- Terminate filter 0------------

if (SCORE.NRUNS - 0 ) > 0 then
	0.0 
else
	-1.0 
end


**************************************************
RECORD #1
RBT_MODEL_ERROR at ../src/lib/RbtMdlFileSource.cxx, line 298
C1 makes a bond with an unknown bond order
RBT_MODEL_ERROR at ../src/lib/RbtMdlFileSource.cxx, line 298
C5 makes a bond with an unknown bond order
RBT_MODEL_ERROR at ../src/lib/RbtMdlFileSource.cxx, line 298
C8 makes a bond with an unknown bond order
RBT_MODEL_ERROR at ../src/lib/RbtMdlFileSource.cxx, line 298
C12 makes a bond with an unknown bond order
RBT_MODEL_ERROR at ../src/lib/RbtMdlFileSource.cxx, line 298
C15 makes a bond with an unknown bond order
RBT_MODEL_ERROR at ../src/lib/RbtMdlFileSource.cxx, line 298
C18 makes a bond with an unknown bond order
RBT_MODEL_ERROR at ../src/lib/RbtMdlFileSource.cxx, line 298
C20 makes a bond with an unknown bond order
RBT_MODEL_ERROR at ../src/lib/RbtMdlFileSource.cxx, line 298
C27 makes a bond with an unknown bond order
RBT_MODEL_ERROR at ../src/lib/RbtMdlFileSource.cxx, line 298
C28 makes a bond with an unknown bond order
RBT_MODEL_ERROR at ../src/lib/RbtMdlFileSource.cxx, line 298
C29 makes a bond with an unknown bond order
RBT_MODEL_ERROR at ../src/lib/RbtMdlFileSource.cxx, line 298
C30 makes a bond with an unknown bond order
RBT_MODEL_ERROR at ../src/lib/RbtMdlFileSource.cxx, line 298
C31 makes a bond with an unknown bond order
RBT_MODEL_ERROR at ../src/lib/RbtMdlFileSource.cxx, line 298
C32 makes a bond with an unknown bond order
RBT_MODEL_ERROR at ../src/lib/RbtMdlFileSource.cxx, line 298
C33 makes a bond with an unknown bond order
RBT_MODEL_ERROR at ../src/lib/RbtMdlFileSource.cxx, line 298
C34 makes a bond with an unknown bond order
RBT_MODEL_ERROR at ../src/lib/RbtMdlFileSource.cxx, line 298
C35 makes a bond with an unknown bond order
RBT_MODEL_ERROR at ../src/lib/RbtMdlFileSource.cxx, line 298
C36 makes a bond with an unknown bond order
RBT_MODEL_ERROR at ../src/lib/RbtMdlFileSource.cxx, line 298
C37 makes a bond with an unknown bond order
**WARNING** RBT_MODEL_ERROR at ../src/lib/RbtMdlFileSource.cxx, line 413
C1 makes too many bonds
**WARNING** RBT_MODEL_ERROR at ../src/lib/RbtMdlFileSource.cxx, line 413
C5 makes too many bonds
**WARNING** RBT_MODEL_ERROR at ../src/lib/RbtMdlFileSource.cxx, line 413
C8 makes too many bonds
**WARNING** RBT_MODEL_ERROR at ../src/lib/RbtMdlFileSource.cxx, line 413
C12 makes too many bonds
**WARNING** RBT_MODEL_ERROR at ../src/lib/RbtMdlFileSource.cxx, line 413
C15 makes too many bonds
**WARNING** RBT_MODEL_ERROR at ../src/lib/RbtMdlFileSource.cxx, line 413
C18 makes too many bonds
**WARNING** RBT_MODEL_ERROR at ../src/lib/RbtMdlFileSource.cxx, line 413
C20 makes too many bonds
**WARNING** RBT_MODEL_ERROR at ../src/lib/RbtMdlFileSource.cxx, line 413
C27 makes too many bonds
**WARNING** RBT_MODEL_ERROR at ../src/lib/RbtMdlFileSource.cxx, line 413
C28 makes too many bonds
**WARNING** RBT_MODEL_ERROR at ../src/lib/RbtMdlFileSource.cxx, line 413
C29 makes too many bonds
**WARNING** RBT_MODEL_ERROR at ../src/lib/RbtMdlFileSource.cxx, line 413
C30 makes too many bonds
**WARNING** RBT_MODEL_ERROR at ../src/lib/RbtMdlFileSource.cxx, line 413
C31 makes too many bonds
**WARNING** RBT_MODEL_ERROR at ../src/lib/RbtMdlFileSource.cxx, line 413
C32 makes too many bonds
**WARNING** RBT_MODEL_ERROR at ../src/lib/RbtMdlFileSource.cxx, line 413
C33 makes too many bonds
**WARNING** RBT_MODEL_ERROR at ../src/lib/RbtMdlFileSource.cxx, line 413
C34 makes too many bonds
**WARNING** RBT_MODEL_ERROR at ../src/lib/RbtMdlFileSource.cxx, line 413
C35 makes too many bonds
**WARNING** RBT_MODEL_ERROR at ../src/lib/RbtMdlFileSource.cxx, line 413
C36 makes too many bonds
**WARNING** RBT_MODEL_ERROR at ../src/lib/RbtMdlFileSource.cxx, line 413
C37 makes too many bonds
NAME:   3m37_ligand
RANDOM_NUMBER_SEED:           1527771076
RBT_MODEL_ERROR at ../src/lib/RbtMdlFileSource.cxx, line 298
C1 makes a bond with an unknown bond order
RBT_MODEL_ERROR at ../src/lib/RbtMdlFileSource.cxx, line 298
C5 makes a bond with an unknown bond order
RBT_MODEL_ERROR at ../src/lib/RbtMdlFileSource.cxx, line 298
C8 makes a bond with an unknown bond order
RBT_MODEL_ERROR at ../src/lib/RbtMdlFileSource.cxx, line 298
C12 makes a bond with an unknown bond order
RBT_MODEL_ERROR at ../src/lib/RbtMdlFileSource.cxx, line 298
C15 makes a bond with an unknown bond order
RBT_MODEL_ERROR at ../src/lib/RbtMdlFileSource.cxx, line 298
C18 makes a bond with an unknown bond order
RBT_MODEL_ERROR at ../src/lib/RbtMdlFileSource.cxx, line 298
C20 makes a bond with an unknown bond order
RBT_MODEL_ERROR at ../src/lib/RbtMdlFileSource.cxx, line 298
C27 makes a bond with an unknown bond order
RBT_MODEL_ERROR at ../src/lib/RbtMdlFileSource.cxx, line 298
C28 makes a bond with an unknown bond order
RBT_MODEL_ERROR at ../src/lib/RbtMdlFileSource.cxx, line 298
C29 makes a bond with an unknown bond order
RBT_MODEL_ERROR at ../src/lib/RbtMdlFileSource.cxx, line 298
C30 makes a bond with an unknown bond order
RBT_MODEL_ERROR at ../src/lib/RbtMdlFileSource.cxx, line 298
C31 makes a bond with an unknown bond order
RBT_MODEL_ERROR at ../src/lib/RbtMdlFileSource.cxx, line 298
C32 makes a bond with an unknown bond order
RBT_MODEL_ERROR at ../src/lib/RbtMdlFileSource.cxx, line 298
C33 makes a bond with an unknown bond order
RBT_MODEL_ERROR at ../src/lib/RbtMdlFileSource.cxx, line 298
C34 makes a bond with an unknown bond order
RBT_MODEL_ERROR at ../src/lib/RbtMdlFileSource.cxx, line 298
C35 makes a bond with an unknown bond order
RBT_MODEL_ERROR at ../src/lib/RbtMdlFileSource.cxx, line 298
C36 makes a bond with an unknown bond order
RBT_MODEL_ERROR at ../src/lib/RbtMdlFileSource.cxx, line 298
C37 makes a bond with an unknown bond order
**WARNING** RBT_MODEL_ERROR at ../src/lib/RbtMdlFileSource.cxx, line 413
C1 makes too many bonds
**WARNING** RBT_MODEL_ERROR at ../src/lib/RbtMdlFileSource.cxx, line 413
C5 makes too many bonds
**WARNING** RBT_MODEL_ERROR at ../src/lib/RbtMdlFileSource.cxx, line 413
C8 makes too many bonds
**WARNING** RBT_MODEL_ERROR at ../src/lib/RbtMdlFileSource.cxx, line 413
C12 makes too many bonds
**WARNING** RBT_MODEL_ERROR at ../src/lib/RbtMdlFileSource.cxx, line 413
C15 makes too many bonds
**WARNING** RBT_MODEL_ERROR at ../src/lib/RbtMdlFileSource.cxx, line 413
C18 makes too many bonds
**WARNING** RBT_MODEL_ERROR at ../src/lib/RbtMdlFileSource.cxx, line 413
C20 makes too many bonds
**WARNING** RBT_MODEL_ERROR at ../src/lib/RbtMdlFileSource.cxx, line 413
C27 makes too many bonds
**WARNING** RBT_MODEL_ERROR at ../src/lib/RbtMdlFileSource.cxx, line 413
C28 makes too many bonds
**WARNING** RBT_MODEL_ERROR at ../src/lib/RbtMdlFileSource.cxx, line 413
C29 makes too many bonds
**WARNING** RBT_MODEL_ERROR at ../src/lib/RbtMdlFileSource.cxx, line 413
C30 makes too many bonds
**WARNING** RBT_MODEL_ERROR at ../src/lib/RbtMdlFileSource.cxx, line 413
C31 makes too many bonds
**WARNING** RBT_MODEL_ERROR at ../src/lib/RbtMdlFileSource.cxx, line 413
C32 makes too many bonds
**WARNING** RBT_MODEL_ERROR at ../src/lib/RbtMdlFileSource.cxx, line 413
C33 makes too many bonds
**WARNING** RBT_MODEL_ERROR at ../src/lib/RbtMdlFileSource.cxx, line 413
C34 makes too many bonds
**WARNING** RBT_MODEL_ERROR at ../src/lib/RbtMdlFileSource.cxx, line 413
C35 makes too many bonds
**WARNING** RBT_MODEL_ERROR at ../src/lib/RbtMdlFileSource.cxx, line 413
C36 makes too many bonds
**WARNING** RBT_MODEL_ERROR at ../src/lib/RbtMdlFileSource.cxx, line 413
C37 makes too many bonds

END OF RUN
