***********************************************
The rDock program is licensed under GNU-LGPLv3.0. http://rdock.sourceforge.net/
Executable:	rbcavity ($Id: //depot/dev/client3/rdock/2013.1/src/exe/rbcavity.cxx#3 $)
Library:	libRbt.so/2013.1/901 2013/11/27
RBT_ROOT:	/home/jovyan/rDock_2013.1_src
RBT_HOME:	/home/jovyan
Current dir:	/home/jovyan/work/pdbbind_v2017_refined/3ucj
Date:		Thu May 31 11:02:48 2018
***********************************************

Command line arguments:
-r 03_create_rdock_cavity.prm
-was
-d
RbtMOL2FileSource: INFO Removing orphan hydrogen UNK:ARG_17:1HH1
RbtMOL2FileSource: INFO Removing orphan hydrogen UNK:ARG_17:2HH1
RbtMOL2FileSource: INFO Removing orphan hydrogen UNK:ARG_17:H01
RbtMOL2FileSource: INFO Removing orphan hydrogen UNK:ARG_17:1HH1
RbtMOL2FileSource: INFO Removing orphan hydrogen UNK:ARG_17:2HH1
RbtMOL2FileSource: INFO Removing orphan hydrogen UNK:ARG_51:2HH1
RbtMOL2FileSource: INFO Removing orphan hydrogen UNK:ARG_51:1HH1
RbtMOL2FileSource: INFO Removing orphan hydrogen UNK:ARG_51:2HH1
RbtMOL2FileSource: INFO Removing orphan hydrogen UNK:ARG_51:1HH1
RbtMOL2FileSource: INFO Removing orphan hydrogen UNK:ARG_69:1HH1
RbtMOL2FileSource: INFO Removing orphan hydrogen UNK:ARG_69:2HH1
RbtMOL2FileSource: INFO Removing orphan hydrogen UNK:ARG_69:1HH1
RbtMOL2FileSource: INFO Removing orphan hydrogen UNK:ARG_69:2HH1
RbtMOL2FileSource: INFO Removing orphan hydrogen UNK:ARG_134:H01
RbtMOL2FileSource: INFO Removing orphan hydrogen UNK:ARG_177:1HH1
RbtMOL2FileSource: INFO Removing orphan hydrogen UNK:ARG_177:2HH1
RbtMOL2FileSource: INFO Removing orphan hydrogen UNK:ARG_177:1HH1
RbtMOL2FileSource: INFO Removing orphan hydrogen UNK:ARG_177:2HH1
RbtMOL2FileSource: INFO Removing orphan hydrogen UNK:ARG_213:2HH1
RbtMOL2FileSource: INFO Removing orphan hydrogen UNK:ARG_213:H01

MAPPER
CLASS	RbtLigandSiteMapper
ENABLED	TRUE
GRIDSTEP	0.5
MAX_CAVITIES	1
MIN_VOLUME	100
NAME	MAPPER
RADIUS	6.0
REF_MOL	3ucj_ligand.sdf
SMALL_SPHERE	1.0
TRACE	0
VOL_INCR	0.0


DOCKING SITE
Total volume 675 A^3
Cavity #1	Size=5400 points; Vol=675 A^3; Min=(69.5,47.5,101.5); Max=(83,63,114.5); Center=(77.0322,54.8197,108.005); Extent=(13.5,15.5,13)

Cav = 5400; total = 5400
