***********************************************
The rDock program is licensed under GNU-LGPLv3.0. http://rdock.sourceforge.net/
Executable:	rbcavity ($Id: //depot/dev/client3/rdock/2013.1/src/exe/rbcavity.cxx#3 $)
Library:	libRbt.so/2013.1/901 2013/11/27
RBT_ROOT:	/home/jovyan/rDock_2013.1_src
RBT_HOME:	/home/jovyan
Current dir:	/home/jovyan/work/pdbbind_v2017_refined/1o0m
Date:		Thu May 31 10:14:09 2018
***********************************************

Command line arguments:
-r 03_create_rdock_cavity.prm
-was
-d
RbtMOL2FileSource: INFO Removing orphan hydrogen UNK:ARG_10:1HH1
RbtMOL2FileSource: INFO Removing orphan hydrogen UNK:ARG_10:2HH1
RbtMOL2FileSource: INFO Removing orphan hydrogen UNK:ARG_33:1HH1
RbtMOL2FileSource: INFO Removing orphan hydrogen UNK:ARG_85:1HH1
RbtMOL2FileSource: INFO Removing orphan hydrogen UNK:ARG_85:2HH1

MAPPER
CLASS	RbtLigandSiteMapper
ENABLED	TRUE
GRIDSTEP	0.5
MAX_CAVITIES	1
MIN_VOLUME	100
NAME	MAPPER
RADIUS	6.0
REF_MOL	1o0m_ligand.sdf
SMALL_SPHERE	1.0
TRACE	0
VOL_INCR	0.0

**WARNING** RBT_MODEL_ERROR at ../src/lib/RbtMdlFileSource.cxx, line 413
P16 makes too many bonds

DOCKING SITE
Total volume 1494.62 A^3
Cavity #1	Size=11957 points; Vol=1494.62 A^3; Min=(28.5,-9.5,16); Max=(46,11.5,30); Center=(38.4937,1.09317,22.716); Extent=(17.5,21,14)

Cav = 11957; total = 11957
