***********************************************
The rDock program is licensed under GNU-LGPLv3.0. http://rdock.sourceforge.net/
Executable:	rbcavity ($Id: //depot/dev/client3/rdock/2013.1/src/exe/rbcavity.cxx#3 $)
Library:	libRbt.so/2013.1/901 2013/11/27
RBT_ROOT:	/home/jovyan/rDock_2013.1_src
RBT_HOME:	/home/jovyan
Current dir:	/home/jovyan/work/pdbbind_v2017_refined/4avs
Date:		Thu May 31 11:06:55 2018
***********************************************

Command line arguments:
-r 03_create_rdock_cavity.prm
-was
-d
RbtMOL2FileSource: INFO Removing orphan hydrogen UNK:ARG_13:1HH1
RbtMOL2FileSource: INFO Removing orphan hydrogen UNK:ARG_13:1HH1
RbtMOL2FileSource: INFO Removing orphan hydrogen UNK:ARG_13:2HH1
RbtMOL2FileSource: INFO Removing orphan hydrogen UNK:ARG_13:1HH1
RbtMOL2FileSource: INFO Removing orphan hydrogen UNK:ARG_13:2HH1
RbtMOL2FileSource: INFO Removing orphan hydrogen UNK:ARG_45:1HH1
RbtMOL2FileSource: INFO Removing orphan hydrogen UNK:ARG_45:H01
RbtMOL2FileSource: INFO Removing orphan hydrogen UNK:ARG_57:1HH1
RbtMOL2FileSource: INFO Removing orphan hydrogen UNK:ARG_57:2HH1
RbtMOL2FileSource: INFO Removing orphan hydrogen UNK:ARG_57:1HH1
RbtMOL2FileSource: INFO Removing orphan hydrogen UNK:ARG_57:2HH1
RbtMOL2FileSource: INFO Removing orphan hydrogen UNK:ARG_67:H01
RbtMOL2FileSource: INFO Removing orphan hydrogen UNK:ARG_77:H01
RbtMOL2FileSource: INFO Removing orphan hydrogen UNK:ARG_77:1HH1
RbtMOL2FileSource: INFO Removing orphan hydrogen UNK:ARG_120:2HH1
RbtMOL2FileSource: INFO Removing orphan hydrogen UNK:ARG_120:2HH1
RbtMOL2FileSource: INFO Removing orphan hydrogen UNK:ARG_146:1HH1
RbtMOL2FileSource: INFO Removing orphan hydrogen UNK:ARG_146:2HH1
RbtMOL2FileSource: INFO Removing orphan hydrogen UNK:ARG_146:1HH1
RbtMOL2FileSource: INFO Removing orphan hydrogen UNK:ARG_146:2HH1
RbtMOL2FileSource: INFO Removing orphan hydrogen UNK:ARG_146:H01

MAPPER
CLASS	RbtLigandSiteMapper
ENABLED	TRUE
GRIDSTEP	0.5
MAX_CAVITIES	1
MIN_VOLUME	100
NAME	MAPPER
RADIUS	6.0
REF_MOL	4avs_ligand.sdf
SMALL_SPHERE	1.0
TRACE	0
VOL_INCR	0.0

**WARNING** RBT_MODEL_ERROR at ../src/lib/RbtMdlFileSource.cxx, line 413
C2 makes too many bonds

DOCKING SITE
Total volume 1056 A^3
Cavity #1	Size=8448 points; Vol=1056 A^3; Min=(9.5,9,49.5); Max=(26.5,23.5,63.5); Center=(18.8436,17.4299,56.8986); Extent=(17,14.5,14)

Cav = 8448; total = 8448
