***********************************************
The rDock program is licensed under GNU-LGPLv3.0. http://rdock.sourceforge.net/
Executable:	rbdock ($Id: //depot/dev/client3/rdock/2013.1/src/exe/rbdock.cxx#4 $)
Library:	libRbt.so/2013.1/901 2013/11/27
RBT_ROOT:	/home/jovyan/rDock_2013.1_src
RBT_HOME:	/home/jovyan
Current dir:	/home/jovyan/work/pdbbind_v2017_refined/2vh0
Date:		Thu May 31 12:35:48 2018
***********************************************


Command line args:
 -i 2vh0_ligand.sdf
 -r 03_create_rdock_cavity.prm
 -p dock.prm
 -o 04_out_2vh0
 -n 1
Reading polar hydrogens only from ligand SD file

DOCKING PROTOCOL:
/home/jovyan/rDock_2013.1_src/data/scripts/dock.prm
Free docking (indexed VDW)

RECEPTOR:
03_create_rdock_cavity.prm
2vh0

DOCKING SITE
Total volume 2161.12 A^3
Cavity #1	Size=17289 points; Vol=2161.12 A^3; Min=(-1,-6,8.5); Max=(17,16,32.5); Center=(6.26346,4.41616,19.4238); Extent=(18,22,24)

WARNING SetupPartialIonicGroups: Inconsistent subunit names in atom list headed by UNK:ILE_16:N
WARNING SetupPartialIonicGroups: Inconsistent subunit names in atom list headed by UNK:VAL_17:N
WARNING SetupPartialIonicGroups: Inconsistent subunit names in atom list headed by UNK:GLY_18:N
WARNING SetupPartialIonicGroups: Inconsistent subunit names in atom list headed by UNK:GLY_19:N
WARNING SetupPartialIonicGroups: Inconsistent subunit names in atom list headed by UNK:GLN_20:N
WARNING SetupPartialIonicGroups: Inconsistent subunit names in atom list headed by UNK:GLU_21:N
WARNING SetupPartialIonicGroups: Inconsistent subunit names in atom list headed by UNK:CYS_22:N
WARNING SetupPartialIonicGroups: Inconsistent subunit names in atom list headed by UNK:LYS_23:N
WARNING SetupPartialIonicGroups: Inconsistent subunit names in atom list headed by UNK:ASP_24:N
WARNING SetupPartialIonicGroups: Inconsistent subunit names in atom list headed by UNK:GLY_25:N
WARNING SetupPartialIonicGroups: Inconsistent subunit names in atom list headed by UNK:GLU_26:N
WARNING SetupPartialIonicGroups: Inconsistent subunit names in atom list headed by UNK:CYS_27:N
WARNING SetupPartialIonicGroups: Inconsistent subunit names in atom list headed by UNK:PRO_28:N
WARNING SetupPartialIonicGroups: Inconsistent subunit names in atom list headed by UNK:TRP_29:N
WARNING SetupPartialIonicGroups: Inconsistent subunit names in atom list headed by UNK:GLN_30:N
WARNING SetupPartialIonicGroups: Inconsistent subunit names in atom list headed by UNK:ALA_31:N
WARNING SetupPartialIonicGroups: Inconsistent subunit names in atom list headed by UNK:LEU_32:N
WARNING SetupPartialIonicGroups: Inconsistent subunit names in atom list headed by UNK:LEU_33:N
WARNING SetupPartialIonicGroups: Inconsistent subunit names in atom list headed by UNK:ILE_34:N
WARNING SetupPartialIonicGroups: Inconsistent subunit names in atom list headed by UNK:ASN_35:N
WARNING SetupPartialIonicGroups: Inconsistent subunit names in atom list headed by UNK:GLU_36:N
WARNING SetupPartialIonicGroups: Inconsistent subunit names in atom list headed by UNK:GLU_37:N
WARNING SetupPartialIonicGroups: Inconsistent subunit names in atom list headed by UNK:ASN_38:N
WARNING SetupPartialIonicGroups: Inconsistent subunit names in atom list headed by UNK:GLU_39:N
WARNING SetupPartialIonicGroups: Inconsistent subunit names in atom list headed by UNK:PHE_41:N
WARNING SetupPartialIonicGroups: Inconsistent subunit names in atom list headed by UNK:CYS_42:N
WARNING SetupPartialIonicGroups: Inconsistent subunit names in atom list headed by UNK:GLY_43:N
WARNING SetupPartialIonicGroups: Inconsistent subunit names in atom list headed by UNK:GLY_44:N
WARNING SetupPartialIonicGroups: Inconsistent subunit names in atom list headed by UNK:THR_45:N
WARNING SetupPartialIonicGroups: Inconsistent subunit names in atom list headed by UNK:ILE_46:N
WARNING SetupPartialIonicGroups: Inconsistent subunit names in atom list headed by UNK:LEU_47:N
WARNING SetupPartialIonicGroups: Inconsistent subunit names in atom list headed by UNK:SER_48:N
WARNING SetupPartialIonicGroups: Inconsistent subunit names in atom list headed by UNK:GLU_49:N
WARNING SetupPartialIonicGroups: Inconsistent subunit names in atom list headed by UNK:GLN_61:N
WARNING SetupPartialIonicGroups: Inconsistent subunit names in atom list headed by UNK:PRO_124:N
WARNING SetupPartialIonicGroups: Inconsistent subunit names in atom list headed by UNK:THR_131:N
WARNING SetupPartialIonicGroups: Inconsistent subunit names in atom list headed by UNK:TYR_185:N
WARNING SetupPartialIonicGroups: Inconsistent subunit names in atom list headed by UNK:LYS_223:N
RbtMOL2FileSource: INFO Removing orphan hydrogen UNK:ARG_63:1HH1
RbtMOL2FileSource: INFO Removing orphan hydrogen UNK:ARG_63:2HH1
RbtMOL2FileSource: INFO Removing orphan hydrogen UNK:ARG_165:1HH1
RbtMOL2FileSource: INFO Removing orphan hydrogen UNK:ARG_165:2HH1

No solvent

------------- Terminate filter 0------------

if (SCORE.NRUNS - 0 ) > 0 then
	0.0 
else
	-1.0 
end


**************************************************
RECORD #1
RBT_MODEL_ERROR at ../src/lib/RbtMdlFileSource.cxx, line 298
C19 makes a bond with an unknown bond order
RBT_MODEL_ERROR at ../src/lib/RbtMdlFileSource.cxx, line 298
C20 makes a bond with an unknown bond order
RBT_MODEL_ERROR at ../src/lib/RbtMdlFileSource.cxx, line 298
C21 makes a bond with an unknown bond order
RBT_MODEL_ERROR at ../src/lib/RbtMdlFileSource.cxx, line 298
C22 makes a bond with an unknown bond order
RBT_MODEL_ERROR at ../src/lib/RbtMdlFileSource.cxx, line 298
C23 makes a bond with an unknown bond order
RBT_MODEL_ERROR at ../src/lib/RbtMdlFileSource.cxx, line 298
C24 makes a bond with an unknown bond order
**WARNING** RBT_MODEL_ERROR at ../src/lib/RbtMdlFileSource.cxx, line 413
C19 makes too many bonds
**WARNING** RBT_MODEL_ERROR at ../src/lib/RbtMdlFileSource.cxx, line 413
C20 makes too many bonds
**WARNING** RBT_MODEL_ERROR at ../src/lib/RbtMdlFileSource.cxx, line 413
C21 makes too many bonds
**WARNING** RBT_MODEL_ERROR at ../src/lib/RbtMdlFileSource.cxx, line 413
C22 makes too many bonds
**WARNING** RBT_MODEL_ERROR at ../src/lib/RbtMdlFileSource.cxx, line 413
C23 makes too many bonds
**WARNING** RBT_MODEL_ERROR at ../src/lib/RbtMdlFileSource.cxx, line 413
C24 makes too many bonds
NAME:   2vh0_ligand
RANDOM_NUMBER_SEED:           1527770148
RBT_MODEL_ERROR at ../src/lib/RbtMdlFileSource.cxx, line 298
C19 makes a bond with an unknown bond order
RBT_MODEL_ERROR at ../src/lib/RbtMdlFileSource.cxx, line 298
C20 makes a bond with an unknown bond order
RBT_MODEL_ERROR at ../src/lib/RbtMdlFileSource.cxx, line 298
C21 makes a bond with an unknown bond order
RBT_MODEL_ERROR at ../src/lib/RbtMdlFileSource.cxx, line 298
C22 makes a bond with an unknown bond order
RBT_MODEL_ERROR at ../src/lib/RbtMdlFileSource.cxx, line 298
C23 makes a bond with an unknown bond order
RBT_MODEL_ERROR at ../src/lib/RbtMdlFileSource.cxx, line 298
C24 makes a bond with an unknown bond order
**WARNING** RBT_MODEL_ERROR at ../src/lib/RbtMdlFileSource.cxx, line 413
C19 makes too many bonds
**WARNING** RBT_MODEL_ERROR at ../src/lib/RbtMdlFileSource.cxx, line 413
C20 makes too many bonds
**WARNING** RBT_MODEL_ERROR at ../src/lib/RbtMdlFileSource.cxx, line 413
C21 makes too many bonds
**WARNING** RBT_MODEL_ERROR at ../src/lib/RbtMdlFileSource.cxx, line 413
C22 makes too many bonds
**WARNING** RBT_MODEL_ERROR at ../src/lib/RbtMdlFileSource.cxx, line 413
C23 makes too many bonds
**WARNING** RBT_MODEL_ERROR at ../src/lib/RbtMdlFileSource.cxx, line 413
C24 makes too many bonds

END OF RUN
