***********************************************
The rDock program is licensed under GNU-LGPLv3.0. http://rdock.sourceforge.net/
Executable:	rbdock ($Id: //depot/dev/client3/rdock/2013.1/src/exe/rbdock.cxx#4 $)
Library:	libRbt.so/2013.1/901 2013/11/27
RBT_ROOT:	/home/jovyan/rDock_2013.1_src
RBT_HOME:	/home/jovyan
Current dir:	/home/jovyan/work/pdbbind_v2017_refined/2vwc
Date:		Thu May 31 12:36:24 2018
***********************************************


Command line args:
 -i 2vwc_ligand.sdf
 -r 03_create_rdock_cavity.prm
 -p dock.prm
 -o 04_out_2vwc
 -n 1
Reading polar hydrogens only from ligand SD file

DOCKING PROTOCOL:
/home/jovyan/rDock_2013.1_src/data/scripts/dock.prm
Free docking (indexed VDW)

RECEPTOR:
03_create_rdock_cavity.prm
2vwc

DOCKING SITE
Total volume 2115.5 A^3
Cavity #1	Size=16924 points; Vol=2115.5 A^3; Min=(-33.5,25,-16); Max=(-12.5,44.5,3.5); Center=(-24.3531,34.5834,-6.4293); Extent=(21,19.5,19.5)


No solvent

------------- Terminate filter 0------------

if (SCORE.NRUNS - 0 ) > 0 then
	0.0 
else
	-1.0 
end


**************************************************
RECORD #1
NAME:   2vwc_ligand
RANDOM_NUMBER_SEED:           1527770184

END OF RUN
