***********************************************
The rDock program is licensed under GNU-LGPLv3.0. http://rdock.sourceforge.net/
Executable:	rbdock ($Id: //depot/dev/client3/rdock/2013.1/src/exe/rbdock.cxx#4 $)
Library:	libRbt.so/2013.1/901 2013/11/27
RBT_ROOT:	/home/jovyan/rDock_2013.1_src
RBT_HOME:	/home/jovyan
Current dir:	/home/jovyan/work/pdbbind_v2017_refined/2f7p
Date:		Thu May 31 12:28:10 2018
***********************************************


Command line args:
 -i 2f7p_ligand.sdf
 -r 03_create_rdock_cavity.prm
 -p dock.prm
 -o 04_out_2f7p
 -n 1
Reading polar hydrogens only from ligand SD file

DOCKING PROTOCOL:
/home/jovyan/rDock_2013.1_src/data/scripts/dock.prm
Free docking (indexed VDW)

RECEPTOR:
03_create_rdock_cavity.prm
2f7p

DOCKING SITE
Total volume 1050.5 A^3
Cavity #1	Size=8404 points; Vol=1050.5 A^3; Min=(22,58.5,2.5); Max=(38.5,73.5,19); Center=(28.2391,65.9553,11.3586); Extent=(16.5,15,16.5)

RbtMOL2FileSource: INFO Removing orphan hydrogen UNK:ARG_410:2HH1
RbtMOL2FileSource: INFO Removing orphan hydrogen UNK:ARG_437:1HH1
RbtMOL2FileSource: INFO Removing orphan hydrogen UNK:ARG_437:2HH1
RbtMOL2FileSource: INFO Removing orphan hydrogen UNK:ARG_617:1HH1
RbtMOL2FileSource: INFO Removing orphan hydrogen UNK:ARG_679:1HH1
RbtMOL2FileSource: INFO Removing orphan hydrogen UNK:ARG_770:1HH1
RbtMOL2FileSource: INFO Removing orphan hydrogen UNK:ARG_817:2HH1
RbtMOL2FileSource: INFO Removing orphan hydrogen UNK:ARG_954:1HH1
RbtMOL2FileSource: INFO Removing orphan hydrogen UNK:ARG_954:2HH1
RbtMOL2FileSource: INFO Removing orphan hydrogen UNK:ARG_1008:1HH1

No solvent

------------- Terminate filter 0------------

if (SCORE.NRUNS - 0 ) > 0 then
	0.0 
else
	-1.0 
end


**************************************************
RECORD #1
RBT_MODEL_ERROR at ../src/lib/RbtMdlFileSource.cxx, line 298
C13 makes a bond with an unknown bond order
RBT_MODEL_ERROR at ../src/lib/RbtMdlFileSource.cxx, line 298
C14 makes a bond with an unknown bond order
RBT_MODEL_ERROR at ../src/lib/RbtMdlFileSource.cxx, line 298
C15 makes a bond with an unknown bond order
RBT_MODEL_ERROR at ../src/lib/RbtMdlFileSource.cxx, line 298
C16 makes a bond with an unknown bond order
RBT_MODEL_ERROR at ../src/lib/RbtMdlFileSource.cxx, line 298
C17 makes a bond with an unknown bond order
RBT_MODEL_ERROR at ../src/lib/RbtMdlFileSource.cxx, line 298
C18 makes a bond with an unknown bond order
**WARNING** RBT_MODEL_ERROR at ../src/lib/RbtMdlFileSource.cxx, line 413
C13 makes too many bonds
**WARNING** RBT_MODEL_ERROR at ../src/lib/RbtMdlFileSource.cxx, line 413
C14 makes too many bonds
**WARNING** RBT_MODEL_ERROR at ../src/lib/RbtMdlFileSource.cxx, line 413
C15 makes too many bonds
**WARNING** RBT_MODEL_ERROR at ../src/lib/RbtMdlFileSource.cxx, line 413
C16 makes too many bonds
**WARNING** RBT_MODEL_ERROR at ../src/lib/RbtMdlFileSource.cxx, line 413
C17 makes too many bonds
**WARNING** RBT_MODEL_ERROR at ../src/lib/RbtMdlFileSource.cxx, line 413
C18 makes too many bonds
NAME:   2f7p_ligand
RANDOM_NUMBER_SEED:           1527769690
RBT_MODEL_ERROR at ../src/lib/RbtMdlFileSource.cxx, line 298
C13 makes a bond with an unknown bond order
RBT_MODEL_ERROR at ../src/lib/RbtMdlFileSource.cxx, line 298
C14 makes a bond with an unknown bond order
RBT_MODEL_ERROR at ../src/lib/RbtMdlFileSource.cxx, line 298
C15 makes a bond with an unknown bond order
RBT_MODEL_ERROR at ../src/lib/RbtMdlFileSource.cxx, line 298
C16 makes a bond with an unknown bond order
RBT_MODEL_ERROR at ../src/lib/RbtMdlFileSource.cxx, line 298
C17 makes a bond with an unknown bond order
RBT_MODEL_ERROR at ../src/lib/RbtMdlFileSource.cxx, line 298
C18 makes a bond with an unknown bond order
**WARNING** RBT_MODEL_ERROR at ../src/lib/RbtMdlFileSource.cxx, line 413
C13 makes too many bonds
**WARNING** RBT_MODEL_ERROR at ../src/lib/RbtMdlFileSource.cxx, line 413
C14 makes too many bonds
**WARNING** RBT_MODEL_ERROR at ../src/lib/RbtMdlFileSource.cxx, line 413
C15 makes too many bonds
**WARNING** RBT_MODEL_ERROR at ../src/lib/RbtMdlFileSource.cxx, line 413
C16 makes too many bonds
**WARNING** RBT_MODEL_ERROR at ../src/lib/RbtMdlFileSource.cxx, line 413
C17 makes too many bonds
**WARNING** RBT_MODEL_ERROR at ../src/lib/RbtMdlFileSource.cxx, line 413
C18 makes too many bonds

END OF RUN
