***********************************************
The rDock program is licensed under GNU-LGPLv3.0. http://rdock.sourceforge.net/
Executable:	rbcavity ($Id: //depot/dev/client3/rdock/2013.1/src/exe/rbcavity.cxx#3 $)
Library:	libRbt.so/2013.1/901 2013/11/27
RBT_ROOT:	/home/jovyan/rDock_2013.1_src
RBT_HOME:	/home/jovyan
Current dir:	/home/jovyan/work/pdbbind_v2017_refined/1nfu
Date:		Thu May 31 10:13:21 2018
***********************************************

Command line arguments:
-r 03_create_rdock_cavity.prm
-was
-d
WARNING SetupPartialIonicGroups: Inconsistent subunit names in atom list headed by UNK:ILE_16:N
WARNING SetupPartialIonicGroups: Inconsistent subunit names in atom list headed by UNK:VAL_17:N
WARNING SetupPartialIonicGroups: Inconsistent subunit names in atom list headed by UNK:GLY_18:N
WARNING SetupPartialIonicGroups: Inconsistent subunit names in atom list headed by UNK:GLY_19:N
WARNING SetupPartialIonicGroups: Inconsistent subunit names in atom list headed by UNK:GLN_20:N
WARNING SetupPartialIonicGroups: Inconsistent subunit names in atom list headed by UNK:GLU_21:N
WARNING SetupPartialIonicGroups: Inconsistent subunit names in atom list headed by UNK:CYS_22:N
WARNING SetupPartialIonicGroups: Inconsistent subunit names in atom list headed by UNK:LYS_23:N
WARNING SetupPartialIonicGroups: Inconsistent subunit names in atom list headed by UNK:ASP_24:N
WARNING SetupPartialIonicGroups: Inconsistent subunit names in atom list headed by UNK:GLY_25:N
WARNING SetupPartialIonicGroups: Inconsistent subunit names in atom list headed by UNK:GLU_26:N
WARNING SetupPartialIonicGroups: Inconsistent subunit names in atom list headed by UNK:CYS_27:N
WARNING SetupPartialIonicGroups: Inconsistent subunit names in atom list headed by UNK:PRO_28:N
WARNING SetupPartialIonicGroups: Inconsistent subunit names in atom list headed by UNK:TRP_29:N
WARNING SetupPartialIonicGroups: Inconsistent subunit names in atom list headed by UNK:GLN_30:N
WARNING SetupPartialIonicGroups: Inconsistent subunit names in atom list headed by UNK:ALA_31:N
WARNING SetupPartialIonicGroups: Inconsistent subunit names in atom list headed by UNK:LEU_32:N
WARNING SetupPartialIonicGroups: Inconsistent subunit names in atom list headed by UNK:LEU_33:N
WARNING SetupPartialIonicGroups: Inconsistent subunit names in atom list headed by UNK:ILE_34:N
WARNING SetupPartialIonicGroups: Inconsistent subunit names in atom list headed by UNK:ASN_35:N
WARNING SetupPartialIonicGroups: Inconsistent subunit names in atom list headed by UNK:GLU_36:N
WARNING SetupPartialIonicGroups: Inconsistent subunit names in atom list headed by UNK:GLU_37:N
WARNING SetupPartialIonicGroups: Inconsistent subunit names in atom list headed by UNK:ASN_38:N
WARNING SetupPartialIonicGroups: Inconsistent subunit names in atom list headed by UNK:GLU_39:N
WARNING SetupPartialIonicGroups: Inconsistent subunit names in atom list headed by UNK:PHE_41:N
WARNING SetupPartialIonicGroups: Inconsistent subunit names in atom list headed by UNK:CYS_42:N
WARNING SetupPartialIonicGroups: Inconsistent subunit names in atom list headed by UNK:GLY_43:N
WARNING SetupPartialIonicGroups: Inconsistent subunit names in atom list headed by UNK:GLY_44:N
WARNING SetupPartialIonicGroups: Inconsistent subunit names in atom list headed by UNK:THR_45:N
WARNING SetupPartialIonicGroups: Inconsistent subunit names in atom list headed by UNK:ILE_46:N
WARNING SetupPartialIonicGroups: Inconsistent subunit names in atom list headed by UNK:LEU_47:N
WARNING SetupPartialIonicGroups: Inconsistent subunit names in atom list headed by UNK:SER_48:N
WARNING SetupPartialIonicGroups: Inconsistent subunit names in atom list headed by UNK:GLU_49:N
WARNING SetupPartialIonicGroups: Inconsistent subunit names in atom list headed by UNK:GLN_61:N
WARNING SetupPartialIonicGroups: Inconsistent subunit names in atom list headed by UNK:PRO_124:N
WARNING SetupPartialIonicGroups: Inconsistent subunit names in atom list headed by UNK:THR_131:N
WARNING SetupPartialIonicGroups: Inconsistent subunit names in atom list headed by UNK:TYR_185:N
WARNING SetupPartialIonicGroups: Inconsistent subunit names in atom list headed by UNK:LYS_223:N
RbtMOL2FileSource: INFO Removing orphan hydrogen UNK:ARG-_2:1HH1
RbtMOL2FileSource: INFO Removing orphan hydrogen UNK:ARG-_2:2HH1
RbtMOL2FileSource: INFO Removing orphan hydrogen UNK:ARG_71:1HH1
RbtMOL2FileSource: INFO Removing orphan hydrogen UNK:ARG_71:2HH1
RbtMOL2FileSource: INFO Removing orphan hydrogen UNK:ARG_107:2HH1
RbtMOL2FileSource: INFO Removing orphan hydrogen UNK:ARG_202:1HH1
RbtMOL2FileSource: INFO Removing orphan hydrogen UNK:ARG_240:1HH1

MAPPER
CLASS	RbtLigandSiteMapper
ENABLED	TRUE
GRIDSTEP	0.5
MAX_CAVITIES	1
MIN_VOLUME	100
NAME	MAPPER
RADIUS	6.0
REF_MOL	1nfu_ligand.sdf
SMALL_SPHERE	1.0
TRACE	0
VOL_INCR	0.0

RBT_MODEL_ERROR at ../src/lib/RbtMdlFileSource.cxx, line 298
C4 makes a bond with an unknown bond order
RBT_MODEL_ERROR at ../src/lib/RbtMdlFileSource.cxx, line 298
C5 makes a bond with an unknown bond order
RBT_MODEL_ERROR at ../src/lib/RbtMdlFileSource.cxx, line 298
C6 makes a bond with an unknown bond order
RBT_MODEL_ERROR at ../src/lib/RbtMdlFileSource.cxx, line 298
C7 makes a bond with an unknown bond order
RBT_MODEL_ERROR at ../src/lib/RbtMdlFileSource.cxx, line 298
C8 makes a bond with an unknown bond order
RBT_MODEL_ERROR at ../src/lib/RbtMdlFileSource.cxx, line 298
C9 makes a bond with an unknown bond order
RBT_MODEL_ERROR at ../src/lib/RbtMdlFileSource.cxx, line 298
C23 makes a bond with an unknown bond order
RBT_MODEL_ERROR at ../src/lib/RbtMdlFileSource.cxx, line 298
C24 makes a bond with an unknown bond order
RBT_MODEL_ERROR at ../src/lib/RbtMdlFileSource.cxx, line 298
C26 makes a bond with an unknown bond order
RBT_MODEL_ERROR at ../src/lib/RbtMdlFileSource.cxx, line 298
C27 makes a bond with an unknown bond order
RBT_MODEL_ERROR at ../src/lib/RbtMdlFileSource.cxx, line 298
C29 makes a bond with an unknown bond order
RBT_MODEL_ERROR at ../src/lib/RbtMdlFileSource.cxx, line 298
C30 makes a bond with an unknown bond order
**WARNING** RBT_MODEL_ERROR at ../src/lib/RbtMdlFileSource.cxx, line 413
N1 makes too many bonds
**WARNING** RBT_MODEL_ERROR at ../src/lib/RbtMdlFileSource.cxx, line 413
N3 makes too many bonds
**WARNING** RBT_MODEL_ERROR at ../src/lib/RbtMdlFileSource.cxx, line 413
C4 makes too many bonds
**WARNING** RBT_MODEL_ERROR at ../src/lib/RbtMdlFileSource.cxx, line 413
C5 makes too many bonds
**WARNING** RBT_MODEL_ERROR at ../src/lib/RbtMdlFileSource.cxx, line 413
C6 makes too many bonds
**WARNING** RBT_MODEL_ERROR at ../src/lib/RbtMdlFileSource.cxx, line 413
C7 makes too many bonds
**WARNING** RBT_MODEL_ERROR at ../src/lib/RbtMdlFileSource.cxx, line 413
C8 makes too many bonds
**WARNING** RBT_MODEL_ERROR at ../src/lib/RbtMdlFileSource.cxx, line 413
C9 makes too many bonds
**WARNING** RBT_MODEL_ERROR at ../src/lib/RbtMdlFileSource.cxx, line 413
C23 makes too many bonds
**WARNING** RBT_MODEL_ERROR at ../src/lib/RbtMdlFileSource.cxx, line 413
C24 makes too many bonds
**WARNING** RBT_MODEL_ERROR at ../src/lib/RbtMdlFileSource.cxx, line 413
C26 makes too many bonds
**WARNING** RBT_MODEL_ERROR at ../src/lib/RbtMdlFileSource.cxx, line 413
C27 makes too many bonds
**WARNING** RBT_MODEL_ERROR at ../src/lib/RbtMdlFileSource.cxx, line 413
C29 makes too many bonds
**WARNING** RBT_MODEL_ERROR at ../src/lib/RbtMdlFileSource.cxx, line 413
C30 makes too many bonds

DOCKING SITE
Total volume 1816.5 A^3
Cavity #1	Size=14532 points; Vol=1816.5 A^3; Min=(-1.5,-5.5,10.5); Max=(17.5,15.5,32.5); Center=(5.88962,4.58953,20.1001); Extent=(19,21,22)

Cav = 14532; total = 14532
