***********************************************
The rDock program is licensed under GNU-LGPLv3.0. http://rdock.sourceforge.net/
Executable:	rbdock ($Id: //depot/dev/client3/rdock/2013.1/src/exe/rbdock.cxx#4 $)
Library:	libRbt.so/2013.1/901 2013/11/27
RBT_ROOT:	/home/jovyan/rDock_2013.1_src
RBT_HOME:	/home/jovyan
Current dir:	/home/jovyan/work/pdbbind_v2017_refined/3bxe
Date:		Thu May 31 12:42:01 2018
***********************************************


Command line args:
 -i 3bxe_ligand.sdf
 -r 03_create_rdock_cavity.prm
 -p dock.prm
 -o 04_out_3bxe
 -n 1
Reading polar hydrogens only from ligand SD file

DOCKING PROTOCOL:
/home/jovyan/rDock_2013.1_src/data/scripts/dock.prm
Free docking (indexed VDW)

RECEPTOR:
03_create_rdock_cavity.prm
3bxe

DOCKING SITE
Total volume 665.625 A^3
Cavity #1	Size=5325 points; Vol=665.625 A^3; Min=(-50,-6.5,-2.5); Max=(-37,10.5,11); Center=(-43.7169,3.16319,4.65362); Extent=(13,17,13.5)

RbtMOL2FileSource: INFO Removing orphan hydrogen UNK:ARG_322:1HH1

No solvent

------------- Terminate filter 0------------

if (SCORE.NRUNS - 0 ) > 0 then
	0.0 
else
	-1.0 
end


**************************************************
RECORD #1
**WARNING** RBT_MODEL_ERROR at ../src/lib/RbtMdlFileSource.cxx, line 413
P1 makes too many bonds
NAME:   3bxe_ligand
RANDOM_NUMBER_SEED:           1527770521
**WARNING** RBT_MODEL_ERROR at ../src/lib/RbtMdlFileSource.cxx, line 413
P1 makes too many bonds

END OF RUN
