***********************************************
The rDock program is licensed under GNU-LGPLv3.0. http://rdock.sourceforge.net/
Executable:	rbcavity ($Id: //depot/dev/client3/rdock/2013.1/src/exe/rbcavity.cxx#3 $)
Library:	libRbt.so/2013.1/901 2013/11/27
RBT_ROOT:	/home/jovyan/rDock_2013.1_src
RBT_HOME:	/home/jovyan
Current dir:	/home/jovyan/work/pdbbind_v2017_refined/4zeb
Date:		Thu May 31 11:30:38 2018
***********************************************

Command line arguments:
-r 03_create_rdock_cavity.prm
-was
-d
RbtMOL2FileSource: INFO Removing orphan hydrogen UNK:ARG_94:1HH1
RbtMOL2FileSource: INFO Removing orphan hydrogen UNK:ARG_94:2HH1
RbtMOL2FileSource: INFO Removing orphan hydrogen UNK:ARG_105:2HH1
RbtMOL2FileSource: INFO Removing orphan hydrogen UNK:ARG_129:1HH1
RbtMOL2FileSource: INFO Removing orphan hydrogen UNK:ARG_129:2HH1
RbtMOL2FileSource: INFO Removing orphan hydrogen UNK:ARG_163:1HH1
RbtMOL2FileSource: INFO Removing orphan hydrogen UNK:ARG_163:2HH1
RbtMOL2FileSource: INFO Removing orphan hydrogen UNK:ARG_312:2HH1
RbtMOL2FileSource: INFO Removing orphan hydrogen UNK:ARG_416:1HH1
RbtMOL2FileSource: INFO Removing orphan hydrogen UNK:ARG_444:2HH1

MAPPER
CLASS	RbtLigandSiteMapper
ENABLED	TRUE
GRIDSTEP	0.5
MAX_CAVITIES	1
MIN_VOLUME	100
NAME	MAPPER
RADIUS	6.0
REF_MOL	4zeb_ligand.sdf
SMALL_SPHERE	1.0
TRACE	0
VOL_INCR	0.0

**WARNING** RBT_MODEL_ERROR at ../src/lib/RbtMdlFileSource.cxx, line 413
P25 makes too many bonds

DOCKING SITE
Total volume 1576 A^3
Cavity #1	Size=12608 points; Vol=1576 A^3; Min=(24.5,12,26.5); Max=(40.5,33.5,44.5); Center=(31.7056,24.3209,34.2589); Extent=(16,21.5,18)

Cav = 12608; total = 12608
