***********************************************
The rDock program is licensed under GNU-LGPLv3.0. http://rdock.sourceforge.net/
Executable:	rbdock ($Id: //depot/dev/client3/rdock/2013.1/src/exe/rbdock.cxx#4 $)
Library:	libRbt.so/2013.1/901 2013/11/27
RBT_ROOT:	/home/jovyan/rDock_2013.1_src
RBT_HOME:	/home/jovyan
Current dir:	/home/jovyan/work/pdbbind_v2017_refined/4bcp
Date:		Thu May 31 13:02:09 2018
***********************************************


Command line args:
 -i 4bcp_ligand.sdf
 -r 03_create_rdock_cavity.prm
 -p dock.prm
 -o 04_out_4bcp
 -n 1
Reading polar hydrogens only from ligand SD file

DOCKING PROTOCOL:
/home/jovyan/rDock_2013.1_src/data/scripts/dock.prm
Free docking (indexed VDW)

RECEPTOR:
03_create_rdock_cavity.prm
4bcp

DOCKING SITE
Total volume 1379.5 A^3
Cavity #1	Size=11036 points; Vol=1379.5 A^3; Min=(-5.5,14.5,13); Max=(13,32,31.5); Center=(3.1028,23.079,22.524); Extent=(18.5,17.5,18.5)

WARNING SetupPartialIonicGroups: Inconsistent subunit names in atom list headed by UNK:GLY_176:N
WARNING SetupPartialIonicGroups: Inconsistent subunit names in atom list headed by UNK:CYS_177:N
WARNING SetupPartialIonicGroups: Inconsistent subunit names in atom list headed by UNK:LYS_178:N
WARNING SetupPartialIonicGroups: Inconsistent subunit names in atom list headed by UNK:TYR_179:N
WARNING SetupPartialIonicGroups: Inconsistent subunit names in atom list headed by UNK:TYR_180:N
WARNING SetupPartialIonicGroups: Inconsistent subunit names in atom list headed by UNK:SER_181:N
WARNING SetupPartialIonicGroups: Inconsistent subunit names in atom list headed by UNK:THR_182:N
WARNING SetupPartialIonicGroups: Inconsistent subunit names in atom list headed by UNK:ALA_183:N
WARNING SetupPartialIonicGroups: Inconsistent subunit names in atom list headed by UNK:VAL_184:N
WARNING SetupPartialIonicGroups: Inconsistent subunit names in atom list headed by UNK:ASP_185:N
WARNING SetupPartialIonicGroups: Inconsistent subunit names in atom list headed by UNK:ILE_186:N
WARNING SetupPartialIonicGroups: Inconsistent subunit names in atom list headed by UNK:TRP_187:N
WARNING SetupPartialIonicGroups: Inconsistent subunit names in atom list headed by UNK:SER_188:N
WARNING SetupPartialIonicGroups: Inconsistent subunit names in atom list headed by UNK:LEU_189:N
WARNING SetupPartialIonicGroups: Inconsistent subunit names in atom list headed by UNK:GLY_190:N
WARNING SetupPartialIonicGroups: Inconsistent subunit names in atom list headed by UNK:CYS_191:N
WARNING SetupPartialIonicGroups: Inconsistent subunit names in atom list headed by UNK:ILE_192:N
WARNING SetupPartialIonicGroups: Inconsistent subunit names in atom list headed by UNK:PHE_193:N
WARNING SetupPartialIonicGroups: Inconsistent subunit names in atom list headed by UNK:ALA_194:N
WARNING SetupPartialIonicGroups: Inconsistent subunit names in atom list headed by UNK:GLU_195:N
WARNING SetupPartialIonicGroups: Inconsistent subunit names in atom list headed by UNK:MET_196:N
WARNING SetupPartialIonicGroups: Inconsistent subunit names in atom list headed by UNK:THR_198:N
WARNING SetupPartialIonicGroups: Inconsistent subunit names in atom list headed by UNK:ARG_199:N
WARNING SetupPartialIonicGroups: Inconsistent subunit names in atom list headed by UNK:ARG_200:N
WARNING SetupPartialIonicGroups: Inconsistent subunit names in atom list headed by UNK:ALA_201:N
WARNING SetupPartialIonicGroups: Inconsistent subunit names in atom list headed by UNK:LEU_202:N
WARNING SetupPartialIonicGroups: Inconsistent subunit names in atom list headed by UNK:PHE_203:N
WARNING SetupPartialIonicGroups: Inconsistent subunit names in atom list headed by UNK:GLY_205:N
WARNING SetupPartialIonicGroups: Inconsistent subunit names in atom list headed by UNK:ASP_206:N
WARNING SetupPartialIonicGroups: Inconsistent subunit names in atom list headed by UNK:SER_207:N
WARNING SetupPartialIonicGroups: Inconsistent subunit names in atom list headed by UNK:GLU_208:N
WARNING SetupPartialIonicGroups: Inconsistent subunit names in atom list headed by UNK:ILE_209:N
WARNING SetupPartialIonicGroups: Inconsistent subunit names in atom list headed by UNK:ASP_210:N
WARNING SetupPartialIonicGroups: Inconsistent subunit names in atom list headed by UNK:GLN_211:N
WARNING SetupPartialIonicGroups: Inconsistent subunit names in atom list headed by UNK:LEU_212:N
WARNING SetupPartialIonicGroups: Inconsistent subunit names in atom list headed by UNK:PHE_213:N
WARNING SetupPartialIonicGroups: Inconsistent subunit names in atom list headed by UNK:ARG_214:N
WARNING SetupPartialIonicGroups: Inconsistent subunit names in atom list headed by UNK:ILE_215:N
WARNING SetupPartialIonicGroups: Inconsistent subunit names in atom list headed by UNK:PHE_216:N
WARNING SetupPartialIonicGroups: Inconsistent subunit names in atom list headed by UNK:ARG_217:N
WARNING SetupPartialIonicGroups: Inconsistent subunit names in atom list headed by UNK:THR_218:N
WARNING SetupPartialIonicGroups: Inconsistent subunit names in atom list headed by UNK:LEU_219:N
WARNING SetupPartialIonicGroups: Inconsistent subunit names in atom list headed by UNK:GLY_220:N
WARNING SetupPartialIonicGroups: Inconsistent subunit names in atom list headed by UNK:THR_221:N
WARNING SetupPartialIonicGroups: Inconsistent subunit names in atom list headed by UNK:PRO_222:N
WARNING SetupPartialIonicGroups: Inconsistent subunit names in atom list headed by UNK:ASP_223:N
WARNING SetupPartialIonicGroups: Inconsistent subunit names in atom list headed by UNK:VAL_225:N
WARNING SetupPartialIonicGroups: Inconsistent subunit names in atom list headed by UNK:VAL_226:N
WARNING SetupPartialIonicGroups: Inconsistent subunit names in atom list headed by UNK:TRP_227:N
WARNING SetupPartialIonicGroups: Inconsistent subunit names in atom list headed by UNK:PRO_228:N
WARNING SetupPartialIonicGroups: Inconsistent subunit names in atom list headed by UNK:GLY_229:N
WARNING SetupPartialIonicGroups: Inconsistent subunit names in atom list headed by UNK:VAL_230:N
WARNING SetupPartialIonicGroups: Inconsistent subunit names in atom list headed by UNK:SER_232:N
WARNING SetupPartialIonicGroups: Inconsistent subunit names in atom list headed by UNK:MET_233:N
WARNING SetupPartialIonicGroups: Inconsistent subunit names in atom list headed by UNK:PRO_234:N
WARNING SetupPartialIonicGroups: Inconsistent subunit names in atom list headed by UNK:ASP_235:N
WARNING SetupPartialIonicGroups: Inconsistent subunit names in atom list headed by UNK:TYR_236:N
WARNING SetupPartialIonicGroups: Inconsistent subunit names in atom list headed by UNK:LYS_237:N
WARNING SetupPartialIonicGroups: Inconsistent subunit names in atom list headed by UNK:PRO_238:N
WARNING SetupPartialIonicGroups: Inconsistent subunit names in atom list headed by UNK:SER_239:N
WARNING SetupPartialIonicGroups: Inconsistent subunit names in atom list headed by UNK:PHE_240:N
WARNING SetupPartialIonicGroups: Inconsistent subunit names in atom list headed by UNK:PRO_241:N
WARNING SetupPartialIonicGroups: Inconsistent subunit names in atom list headed by UNK:LYS_242:N
WARNING SetupPartialIonicGroups: Inconsistent subunit names in atom list headed by UNK:TRP_243:N
WARNING SetupPartialIonicGroups: Inconsistent subunit names in atom list headed by UNK:ALA_244:N
WARNING SetupPartialIonicGroups: Inconsistent subunit names in atom list headed by UNK:ARG_245:N
WARNING SetupPartialIonicGroups: Inconsistent subunit names in atom list headed by UNK:GLN_246:N
WARNING SetupPartialIonicGroups: Inconsistent subunit names in atom list headed by UNK:ASP_247:N
WARNING SetupPartialIonicGroups: Inconsistent subunit names in atom list headed by UNK:PHE_248:N
WARNING SetupPartialIonicGroups: Inconsistent subunit names in atom list headed by UNK:SER_249:N
WARNING SetupPartialIonicGroups: Inconsistent subunit names in atom list headed by UNK:LYS_250:N
WARNING SetupPartialIonicGroups: Inconsistent subunit names in atom list headed by UNK:VAL_251:N
WARNING SetupPartialIonicGroups: Inconsistent subunit names in atom list headed by UNK:VAL_252:N
WARNING SetupPartialIonicGroups: Inconsistent subunit names in atom list headed by UNK:PRO_253:N
WARNING SetupPartialIonicGroups: Inconsistent subunit names in atom list headed by UNK:PRO_254:N
WARNING SetupPartialIonicGroups: Inconsistent subunit names in atom list headed by UNK:ASP_256:N
WARNING SetupPartialIonicGroups: Inconsistent subunit names in atom list headed by UNK:GLU_257:N
WARNING SetupPartialIonicGroups: Inconsistent subunit names in atom list headed by UNK:ASP_258:N
WARNING SetupPartialIonicGroups: Inconsistent subunit names in atom list headed by UNK:GLY_259:N
WARNING SetupPartialIonicGroups: Inconsistent subunit names in atom list headed by UNK:ARG_260:N
WARNING SetupPartialIonicGroups: Inconsistent subunit names in atom list headed by UNK:SER_261:N
WARNING SetupPartialIonicGroups: Inconsistent subunit names in atom list headed by UNK:SER_264:N
WARNING SetupPartialIonicGroups: Inconsistent subunit names in atom list headed by UNK:GLN_265:N
WARNING SetupPartialIonicGroups: Inconsistent subunit names in atom list headed by UNK:MET_266:N
WARNING SetupPartialIonicGroups: Inconsistent subunit names in atom list headed by UNK:LEU_267:N
WARNING SetupPartialIonicGroups: Inconsistent subunit names in atom list headed by UNK:HIS_268:N
WARNING SetupPartialIonicGroups: Inconsistent subunit names in atom list headed by UNK:TYR_269:N
WARNING SetupPartialIonicGroups: Inconsistent subunit names in atom list headed by UNK:ASP_270:N
WARNING SetupPartialIonicGroups: Inconsistent subunit names in atom list headed by UNK:PRO_271:N
WARNING SetupPartialIonicGroups: Inconsistent subunit names in atom list headed by UNK:ASN_272:N
WARNING SetupPartialIonicGroups: Inconsistent subunit names in atom list headed by UNK:LYS_273:N
WARNING SetupPartialIonicGroups: Inconsistent subunit names in atom list headed by UNK:ARG_274:N
WARNING SetupPartialIonicGroups: Inconsistent subunit names in atom list headed by UNK:ILE_275:N
WARNING SetupPartialIonicGroups: Inconsistent subunit names in atom list headed by UNK:SER_276:N
WARNING SetupPartialIonicGroups: Inconsistent subunit names in atom list headed by UNK:ALA_277:N
WARNING SetupPartialIonicGroups: Inconsistent subunit names in atom list headed by UNK:LYS_278:N
WARNING SetupPartialIonicGroups: Inconsistent subunit names in atom list headed by UNK:ALA_279:N
WARNING SetupPartialIonicGroups: Inconsistent subunit names in atom list headed by UNK:ALA_280:N
WARNING SetupPartialIonicGroups: Inconsistent subunit names in atom list headed by UNK:LEU_281:N
WARNING SetupPartialIonicGroups: Inconsistent subunit names in atom list headed by UNK:ALA_282:N
WARNING SetupPartialIonicGroups: Inconsistent subunit names in atom list headed by UNK:HIS_283:N
WARNING SetupPartialIonicGroups: Inconsistent subunit names in atom list headed by UNK:PRO_284:N
WARNING SetupPartialIonicGroups: Inconsistent subunit names in atom list headed by UNK:PHE_285:N
WARNING SetupPartialIonicGroups: Inconsistent subunit names in atom list headed by UNK:PHE_286:N
WARNING SetupPartialIonicGroups: Inconsistent subunit names in atom list headed by UNK:GLN_287:N
WARNING SetupPartialIonicGroups: Inconsistent subunit names in atom list headed by UNK:ASP_288:N
WARNING SetupPartialIonicGroups: Inconsistent subunit names in atom list headed by UNK:VAL_289:N
WARNING SetupPartialIonicGroups: Inconsistent subunit names in atom list headed by UNK:THR_290:N
WARNING SetupPartialIonicGroups: Inconsistent subunit names in atom list headed by UNK:LYS_291:N
WARNING SetupPartialIonicGroups: Inconsistent subunit names in atom list headed by UNK:PRO_292:N
WARNING SetupPartialIonicGroups: Inconsistent subunit names in atom list headed by UNK:VAL_293:N
WARNING SetupPartialIonicGroups: Inconsistent subunit names in atom list headed by UNK:PRO_294:N
WARNING SetupPartialIonicGroups: Inconsistent subunit names in atom list headed by UNK:HIS_295:N
WARNING SetupPartialIonicGroups: Inconsistent subunit names in atom list headed by UNK:LEU_296:N
WARNING SetupPartialIonicGroups: Inconsistent subunit names in atom list headed by UNK:ARG_297:N
WARNING SetupPartialIonicGroups: Inconsistent subunit names in atom list headed by UNK:LEU_298:N
RbtMOL2FileSource: INFO Removing orphan hydrogen UNK:ARG_122:1HH1
RbtMOL2FileSource: INFO Removing orphan hydrogen UNK:ARG_187:2HH1
RbtMOL2FileSource: INFO Removing orphan hydrogen UNK:ARG_211:1HH1
RbtMOL2FileSource: INFO Removing orphan hydrogen UNK:ARG_245:1HH1
RbtMOL2FileSource: INFO Removing orphan hydrogen UNK:ARG_297:1HH1
RbtMOL2FileSource: INFO Removing orphan hydrogen UNK:ARG_297:2HH1

No solvent

------------- Terminate filter 0------------

if (SCORE.NRUNS - 0 ) > 0 then
	0.0 
else
	-1.0 
end


**************************************************
RECORD #1
RBT_MODEL_ERROR at ../src/lib/RbtMdlFileSource.cxx, line 298
C8 makes a bond with an unknown bond order
RBT_MODEL_ERROR at ../src/lib/RbtMdlFileSource.cxx, line 298
N9 makes a bond with an unknown bond order
RBT_MODEL_ERROR at ../src/lib/RbtMdlFileSource.cxx, line 298
C10 makes a bond with an unknown bond order
RBT_MODEL_ERROR at ../src/lib/RbtMdlFileSource.cxx, line 298
C12 makes a bond with an unknown bond order
RBT_MODEL_ERROR at ../src/lib/RbtMdlFileSource.cxx, line 298
C13 makes a bond with an unknown bond order
RBT_MODEL_ERROR at ../src/lib/RbtMdlFileSource.cxx, line 298
C14 makes a bond with an unknown bond order
RBT_MODEL_ERROR at ../src/lib/RbtMdlFileSource.cxx, line 298
C15 makes a bond with an unknown bond order
RBT_MODEL_ERROR at ../src/lib/RbtMdlFileSource.cxx, line 298
C16 makes a bond with an unknown bond order
RBT_MODEL_ERROR at ../src/lib/RbtMdlFileSource.cxx, line 298
C24 makes a bond with an unknown bond order
RBT_MODEL_ERROR at ../src/lib/RbtMdlFileSource.cxx, line 298
N25 makes a bond with an unknown bond order
RBT_MODEL_ERROR at ../src/lib/RbtMdlFileSource.cxx, line 298
C26 makes a bond with an unknown bond order
RBT_MODEL_ERROR at ../src/lib/RbtMdlFileSource.cxx, line 298
C27 makes a bond with an unknown bond order
**WARNING** RBT_MODEL_ERROR at ../src/lib/RbtMdlFileSource.cxx, line 413
C8 makes too many bonds
**WARNING** RBT_MODEL_ERROR at ../src/lib/RbtMdlFileSource.cxx, line 413
N9 makes too many bonds
**WARNING** RBT_MODEL_ERROR at ../src/lib/RbtMdlFileSource.cxx, line 413
C10 makes too many bonds
**WARNING** RBT_MODEL_ERROR at ../src/lib/RbtMdlFileSource.cxx, line 413
C12 makes too many bonds
**WARNING** RBT_MODEL_ERROR at ../src/lib/RbtMdlFileSource.cxx, line 413
C13 makes too many bonds
**WARNING** RBT_MODEL_ERROR at ../src/lib/RbtMdlFileSource.cxx, line 413
C14 makes too many bonds
**WARNING** RBT_MODEL_ERROR at ../src/lib/RbtMdlFileSource.cxx, line 413
C15 makes too many bonds
**WARNING** RBT_MODEL_ERROR at ../src/lib/RbtMdlFileSource.cxx, line 413
C16 makes too many bonds
**WARNING** RBT_MODEL_ERROR at ../src/lib/RbtMdlFileSource.cxx, line 413
C24 makes too many bonds
**WARNING** RBT_MODEL_ERROR at ../src/lib/RbtMdlFileSource.cxx, line 413
N25 makes too many bonds
**WARNING** RBT_MODEL_ERROR at ../src/lib/RbtMdlFileSource.cxx, line 413
C26 makes too many bonds
**WARNING** RBT_MODEL_ERROR at ../src/lib/RbtMdlFileSource.cxx, line 413
C27 makes too many bonds
NAME:   4bcp_ligand
RANDOM_NUMBER_SEED:           1527771729
RBT_MODEL_ERROR at ../src/lib/RbtMdlFileSource.cxx, line 298
C8 makes a bond with an unknown bond order
RBT_MODEL_ERROR at ../src/lib/RbtMdlFileSource.cxx, line 298
N9 makes a bond with an unknown bond order
RBT_MODEL_ERROR at ../src/lib/RbtMdlFileSource.cxx, line 298
C10 makes a bond with an unknown bond order
RBT_MODEL_ERROR at ../src/lib/RbtMdlFileSource.cxx, line 298
C12 makes a bond with an unknown bond order
RBT_MODEL_ERROR at ../src/lib/RbtMdlFileSource.cxx, line 298
C13 makes a bond with an unknown bond order
RBT_MODEL_ERROR at ../src/lib/RbtMdlFileSource.cxx, line 298
C14 makes a bond with an unknown bond order
RBT_MODEL_ERROR at ../src/lib/RbtMdlFileSource.cxx, line 298
C15 makes a bond with an unknown bond order
RBT_MODEL_ERROR at ../src/lib/RbtMdlFileSource.cxx, line 298
C16 makes a bond with an unknown bond order
RBT_MODEL_ERROR at ../src/lib/RbtMdlFileSource.cxx, line 298
C24 makes a bond with an unknown bond order
RBT_MODEL_ERROR at ../src/lib/RbtMdlFileSource.cxx, line 298
N25 makes a bond with an unknown bond order
RBT_MODEL_ERROR at ../src/lib/RbtMdlFileSource.cxx, line 298
C26 makes a bond with an unknown bond order
RBT_MODEL_ERROR at ../src/lib/RbtMdlFileSource.cxx, line 298
C27 makes a bond with an unknown bond order
**WARNING** RBT_MODEL_ERROR at ../src/lib/RbtMdlFileSource.cxx, line 413
C8 makes too many bonds
**WARNING** RBT_MODEL_ERROR at ../src/lib/RbtMdlFileSource.cxx, line 413
N9 makes too many bonds
**WARNING** RBT_MODEL_ERROR at ../src/lib/RbtMdlFileSource.cxx, line 413
C10 makes too many bonds
**WARNING** RBT_MODEL_ERROR at ../src/lib/RbtMdlFileSource.cxx, line 413
C12 makes too many bonds
**WARNING** RBT_MODEL_ERROR at ../src/lib/RbtMdlFileSource.cxx, line 413
C13 makes too many bonds
**WARNING** RBT_MODEL_ERROR at ../src/lib/RbtMdlFileSource.cxx, line 413
C14 makes too many bonds
**WARNING** RBT_MODEL_ERROR at ../src/lib/RbtMdlFileSource.cxx, line 413
C15 makes too many bonds
**WARNING** RBT_MODEL_ERROR at ../src/lib/RbtMdlFileSource.cxx, line 413
C16 makes too many bonds
**WARNING** RBT_MODEL_ERROR at ../src/lib/RbtMdlFileSource.cxx, line 413
C24 makes too many bonds
**WARNING** RBT_MODEL_ERROR at ../src/lib/RbtMdlFileSource.cxx, line 413
N25 makes too many bonds
**WARNING** RBT_MODEL_ERROR at ../src/lib/RbtMdlFileSource.cxx, line 413
C26 makes too many bonds
**WARNING** RBT_MODEL_ERROR at ../src/lib/RbtMdlFileSource.cxx, line 413
C27 makes too many bonds

END OF RUN
