***********************************************
The rDock program is licensed under GNU-LGPLv3.0. http://rdock.sourceforge.net/
Executable:	rbdock ($Id: //depot/dev/client3/rdock/2013.1/src/exe/rbdock.cxx#4 $)
Library:	libRbt.so/2013.1/901 2013/11/27
RBT_ROOT:	/home/jovyan/rDock_2013.1_src
RBT_HOME:	/home/jovyan
Current dir:	/home/jovyan/work/pdbbind_v2017_refined/5evd
Date:		Thu May 31 13:20:09 2018
***********************************************


Command line args:
 -i 5evd_ligand.sdf
 -r 03_create_rdock_cavity.prm
 -p dock.prm
 -o 04_out_5evd
 -n 1
Reading polar hydrogens only from ligand SD file

DOCKING PROTOCOL:
/home/jovyan/rDock_2013.1_src/data/scripts/dock.prm
Free docking (indexed VDW)

RECEPTOR:
03_create_rdock_cavity.prm
5evd

DOCKING SITE
Total volume 1220.88 A^3
Cavity #1	Size=9767 points; Vol=1220.88 A^3; Min=(-27,18,-9); Max=(-8,34,5.5); Center=(-15.6238,24.5499,-1.54469); Extent=(19,16,14.5)

RbtMOL2FileSource: INFO Removing orphan hydrogen UNK:ARG_131:2HH1
RbtMOL2FileSource: INFO Removing orphan hydrogen UNK:ARG_236:2HH1

No solvent

------------- Terminate filter 0------------

if (SCORE.NRUNS - 0 ) > 0 then
	0.0 
else
	-1.0 
end


**************************************************
RECORD #1
**WARNING** RBT_MODEL_ERROR at ../src/lib/RbtMdlFileSource.cxx, line 413
C2 makes too many bonds
NAME:   5evd_ligand
RANDOM_NUMBER_SEED:           1527772809
**WARNING** RBT_MODEL_ERROR at ../src/lib/RbtMdlFileSource.cxx, line 413
C2 makes too many bonds

END OF RUN
