***********************************************
The rDock program is licensed under GNU-LGPLv3.0. http://rdock.sourceforge.net/
Executable:	rbdock ($Id: //depot/dev/client3/rdock/2013.1/src/exe/rbdock.cxx#4 $)
Library:	libRbt.so/2013.1/901 2013/11/27
RBT_ROOT:	/home/jovyan/rDock_2013.1_src
RBT_HOME:	/home/jovyan
Current dir:	/home/jovyan/work/pdbbind_v2017_refined/2fu8
Date:		Thu May 31 12:28:32 2018
***********************************************


Command line args:
 -i 2fu8_ligand.sdf
 -r 03_create_rdock_cavity.prm
 -p dock.prm
 -o 04_out_2fu8
 -n 1
Reading polar hydrogens only from ligand SD file

DOCKING PROTOCOL:
/home/jovyan/rDock_2013.1_src/data/scripts/dock.prm
Free docking (indexed VDW)

RECEPTOR:
03_create_rdock_cavity.prm
2fu8

DOCKING SITE
Total volume 1161.25 A^3
Cavity #1	Size=9290 points; Vol=1161.25 A^3; Min=(3.5,22,25); Max=(18,36.5,42.5); Center=(11.0631,27.3163,34.1986); Extent=(14.5,14.5,17.5)

RbtMOL2FileSource: INFO Removing orphan hydrogen UNK:ARG_31:1HH1
RbtMOL2FileSource: INFO Removing orphan hydrogen UNK:ARG_31:2HH1
RbtMOL2FileSource: INFO Removing orphan hydrogen UNK:ARG_107:1HH1
RbtMOL2FileSource: INFO Removing orphan hydrogen UNK:ARG_107:2HH1
RbtMOL2FileSource: INFO Removing orphan hydrogen UNK:ARG_110:1HH1
RbtMOL2FileSource: INFO Removing orphan hydrogen UNK:ARG_110:2HH1
RbtMOL2FileSource: INFO Removing orphan hydrogen UNK:ARG_130:1HH1
RbtMOL2FileSource: INFO Removing orphan hydrogen UNK:ARG_236:2HH1
RbtMOL2FileSource: INFO Removing orphan hydrogen UNK:ARG_252:2HH1
RbtMOL2FileSource: INFO Removing orphan hydrogen UNK:ARG_276:2HH1

No solvent

------------- Terminate filter 0------------

if (SCORE.NRUNS - 0 ) > 0 then
	0.0 
else
	-1.0 
end


**************************************************
RECORD #1
**WARNING** RBT_MODEL_ERROR at ../src/lib/RbtMdlFileSource.cxx, line 413
C2 makes too many bonds
NAME:   2fu8_ligand
RANDOM_NUMBER_SEED:           1527769712
**WARNING** RBT_MODEL_ERROR at ../src/lib/RbtMdlFileSource.cxx, line 413
C2 makes too many bonds

END OF RUN
