***********************************************
The rDock program is licensed under GNU-LGPLv3.0. http://rdock.sourceforge.net/
Executable:	rbdock ($Id: //depot/dev/client3/rdock/2013.1/src/exe/rbdock.cxx#4 $)
Library:	libRbt.so/2013.1/901 2013/11/27
RBT_ROOT:	/home/jovyan/rDock_2013.1_src
RBT_HOME:	/home/jovyan
Current dir:	/home/jovyan/work/pdbbind_v2017_refined/1ceb
Date:		Thu May 31 12:06:54 2018
***********************************************


Command line args:
 -i 1ceb_ligand.sdf
 -r 03_create_rdock_cavity.prm
 -p dock.prm
 -o 04_out_1ceb
 -n 1
Reading polar hydrogens only from ligand SD file

DOCKING PROTOCOL:
/home/jovyan/rDock_2013.1_src/data/scripts/dock.prm
Free docking (indexed VDW)

RECEPTOR:
03_create_rdock_cavity.prm
1ceb

DOCKING SITE
Total volume 933.75 A^3
Cavity #1	Size=7470 points; Vol=933.75 A^3; Min=(12.5,-11,35); Max=(30,5,48); Center=(20.702,-2.61934,42.8959); Extent=(17.5,16,13)

WARNING SetupPartialIonicGroups: Inconsistent subunit names in atom list headed by UNK:GLU_1:N
RbtMOL2FileSource: INFO Removing orphan hydrogen UNK:ARG_32:2HH1

No solvent

------------- Terminate filter 0------------

if (SCORE.NRUNS - 0 ) > 0 then
	0.0 
else
	-1.0 
end


**************************************************
RECORD #1
**WARNING** RBT_MODEL_ERROR at ../src/lib/RbtMdlFileSource.cxx, line 413
C8 makes too many bonds
NAME:   1ceb_ligand
RANDOM_NUMBER_SEED:           1527768414
**WARNING** RBT_MODEL_ERROR at ../src/lib/RbtMdlFileSource.cxx, line 413
C8 makes too many bonds

END OF RUN
