***********************************************
The rDock program is licensed under GNU-LGPLv3.0. http://rdock.sourceforge.net/
Executable:	rbcavity ($Id: //depot/dev/client3/rdock/2013.1/src/exe/rbcavity.cxx#3 $)
Library:	libRbt.so/2013.1/901 2013/11/27
RBT_ROOT:	/home/jovyan/rDock_2013.1_src
RBT_HOME:	/home/jovyan
Current dir:	/home/jovyan/work/pdbbind_v2017_refined/3kr4
Date:		Thu May 31 10:52:50 2018
***********************************************

Command line arguments:
-r 03_create_rdock_cavity.prm
-was
-d
RbtMOL2FileSource: INFO Removing orphan hydrogen UNK:ARG_205:H01
RbtMOL2FileSource: INFO Removing orphan hydrogen UNK:ARG_236:H01
RbtMOL2FileSource: INFO Removing orphan hydrogen UNK:ARG_251:H01
RbtMOL2FileSource: INFO Removing orphan hydrogen UNK:ARG_251:1HH1
RbtMOL2FileSource: INFO Removing orphan hydrogen UNK:ARG_251:2HH1
RbtMOL2FileSource: INFO Removing orphan hydrogen UNK:ARG_251:1HH1
RbtMOL2FileSource: INFO Removing orphan hydrogen UNK:ARG_251:2HH1
RbtMOL2FileSource: INFO Removing orphan hydrogen UNK:ARG_251:1HH1
RbtMOL2FileSource: INFO Removing orphan hydrogen UNK:ARG_285:H01
RbtMOL2FileSource: INFO Removing orphan hydrogen UNK:ARG_285:H01
RbtMOL2FileSource: INFO Removing orphan hydrogen UNK:ARG_440:H01
RbtMOL2FileSource: INFO Removing orphan hydrogen UNK:ARG_463:H01
RbtMOL2FileSource: INFO Removing orphan hydrogen UNK:ARG_463:1HH1
RbtMOL2FileSource: INFO Removing orphan hydrogen UNK:ARG_463:1HH1
RbtMOL2FileSource: INFO Removing orphan hydrogen UNK:ARG_586:1HH1
RbtMOL2FileSource: INFO Removing orphan hydrogen UNK:ARG_586:1HH1
RbtMOL2FileSource: INFO Removing orphan hydrogen UNK:ARG_586:2HH1
RbtMOL2FileSource: INFO Removing orphan hydrogen UNK:ARG_594:1HH1
RbtMOL2FileSource: INFO Removing orphan hydrogen UNK:ARG_594:2HH1
RbtMOL2FileSource: INFO Removing orphan hydrogen UNK:ARG_594:H01
RbtMOL2FileSource: INFO Removing orphan hydrogen UNK:ARG_594:1HH1

MAPPER
CLASS	RbtLigandSiteMapper
ENABLED	TRUE
GRIDSTEP	0.5
MAX_CAVITIES	1
MIN_VOLUME	100
NAME	MAPPER
RADIUS	6.0
REF_MOL	3kr4_ligand.sdf
SMALL_SPHERE	1.0
TRACE	0
VOL_INCR	0.0

RBT_MODEL_ERROR at ../src/lib/RbtMdlFileSource.cxx, line 298
C4 makes a bond with an unknown bond order
RBT_MODEL_ERROR at ../src/lib/RbtMdlFileSource.cxx, line 298
C5 makes a bond with an unknown bond order
RBT_MODEL_ERROR at ../src/lib/RbtMdlFileSource.cxx, line 298
C6 makes a bond with an unknown bond order
RBT_MODEL_ERROR at ../src/lib/RbtMdlFileSource.cxx, line 298
C7 makes a bond with an unknown bond order
RBT_MODEL_ERROR at ../src/lib/RbtMdlFileSource.cxx, line 298
C8 makes a bond with an unknown bond order
RBT_MODEL_ERROR at ../src/lib/RbtMdlFileSource.cxx, line 298
C9 makes a bond with an unknown bond order
**WARNING** RBT_MODEL_ERROR at ../src/lib/RbtMdlFileSource.cxx, line 413
C4 makes too many bonds
**WARNING** RBT_MODEL_ERROR at ../src/lib/RbtMdlFileSource.cxx, line 413
C5 makes too many bonds
**WARNING** RBT_MODEL_ERROR at ../src/lib/RbtMdlFileSource.cxx, line 413
C6 makes too many bonds
**WARNING** RBT_MODEL_ERROR at ../src/lib/RbtMdlFileSource.cxx, line 413
C7 makes too many bonds
**WARNING** RBT_MODEL_ERROR at ../src/lib/RbtMdlFileSource.cxx, line 413
C8 makes too many bonds
**WARNING** RBT_MODEL_ERROR at ../src/lib/RbtMdlFileSource.cxx, line 413
C9 makes too many bonds
**WARNING** RBT_MODEL_ERROR at ../src/lib/RbtMdlFileSource.cxx, line 413
C20 makes too many bonds

DOCKING SITE
Total volume 1286 A^3
Cavity #1	Size=10288 points; Vol=1286 A^3; Min=(76.5,65,23.5); Max=(98.5,80,38); Center=(88.5326,71.296,30.8221); Extent=(22,15,14.5)

Cav = 10288; total = 10288
