***********************************************
The rDock program is licensed under GNU-LGPLv3.0. http://rdock.sourceforge.net/
Executable:	rbcavity ($Id: //depot/dev/client3/rdock/2013.1/src/exe/rbcavity.cxx#3 $)
Library:	libRbt.so/2013.1/901 2013/11/27
RBT_ROOT:	/home/jovyan/rDock_2013.1_src
RBT_HOME:	/home/jovyan
Current dir:	/home/jovyan/work/pdbbind_v2017_refined/5d1r
Date:		Thu May 31 11:33:09 2018
***********************************************

Command line arguments:
-r 03_create_rdock_cavity.prm
-was
-d
RbtMOL2FileSource: INFO Removing orphan hydrogen UNK:ARG_27:2HH1
RbtMOL2FileSource: INFO Removing orphan hydrogen UNK:ARG_44:1HH1
RbtMOL2FileSource: INFO Removing orphan hydrogen UNK:ARG_100:2HH1
RbtMOL2FileSource: INFO Removing orphan hydrogen UNK:ARG_100:H01
RbtMOL2FileSource: INFO Removing orphan hydrogen UNK:ARG_103:1HH1
RbtMOL2FileSource: INFO Removing orphan hydrogen UNK:ARG_103:2HH1
RbtMOL2FileSource: INFO Removing orphan hydrogen UNK:ARG_137:H01
RbtMOL2FileSource: INFO Removing orphan hydrogen UNK:ARG_156:2HH1
RbtMOL2FileSource: INFO Removing orphan hydrogen UNK:ARG_225:1HH1

MAPPER
CLASS	RbtLigandSiteMapper
ENABLED	TRUE
GRIDSTEP	0.5
MAX_CAVITIES	1
MIN_VOLUME	100
NAME	MAPPER
RADIUS	6.0
REF_MOL	5d1r_ligand.sdf
SMALL_SPHERE	1.0
TRACE	0
VOL_INCR	0.0


DOCKING SITE
Total volume 1274.25 A^3
Cavity #1	Size=10194 points; Vol=1274.25 A^3; Min=(-24.5,-19,148); Max=(-9,2.5,171); Center=(-16.6581,-6.67196,160.79); Extent=(15.5,21.5,23)

Cav = 10194; total = 10194
