***********************************************
The rDock program is licensed under GNU-LGPLv3.0. http://rdock.sourceforge.net/
Executable:	rbcavity ($Id: //depot/dev/client3/rdock/2013.1/src/exe/rbcavity.cxx#3 $)
Library:	libRbt.so/2013.1/901 2013/11/27
RBT_ROOT:	/home/jovyan/rDock_2013.1_src
RBT_HOME:	/home/jovyan
Current dir:	/home/jovyan/work/pdbbind_v2017_refined/1g3e
Date:		Thu May 31 10:05:40 2018
***********************************************

Command line arguments:
-r 03_create_rdock_cavity.prm
-was
-d
WARNING SetupPartialIonicGroups: Inconsistent subunit names in atom list headed by UNK:VAL_65:N
WARNING SetupPartialIonicGroups: Inconsistent subunit names in atom list headed by UNK:GLY_184:N
WARNING SetupPartialIonicGroups: Inconsistent subunit names in atom list headed by UNK:GLY_188:N
WARNING SetupPartialIonicGroups: Inconsistent subunit names in atom list headed by UNK:ALA_221:N
RbtMOL2FileSource: INFO Removing orphan hydrogen UNK:ARG_117:1HH1
RbtMOL2FileSource: INFO Removing orphan hydrogen UNK:ARG_117:2HH1

MAPPER
CLASS	RbtLigandSiteMapper
ENABLED	TRUE
GRIDSTEP	0.5
MAX_CAVITIES	1
MIN_VOLUME	100
NAME	MAPPER
RADIUS	6.0
REF_MOL	1g3e_ligand.sdf
SMALL_SPHERE	1.0
TRACE	0
VOL_INCR	0.0

RBT_MODEL_ERROR at ../src/lib/RbtMdlFileSource.cxx, line 298
C1 makes a bond with an unknown bond order
RBT_MODEL_ERROR at ../src/lib/RbtMdlFileSource.cxx, line 298
C2 makes a bond with an unknown bond order
RBT_MODEL_ERROR at ../src/lib/RbtMdlFileSource.cxx, line 298
C3 makes a bond with an unknown bond order
RBT_MODEL_ERROR at ../src/lib/RbtMdlFileSource.cxx, line 298
C4 makes a bond with an unknown bond order
RBT_MODEL_ERROR at ../src/lib/RbtMdlFileSource.cxx, line 298
C5 makes a bond with an unknown bond order
RBT_MODEL_ERROR at ../src/lib/RbtMdlFileSource.cxx, line 298
C6 makes a bond with an unknown bond order
**WARNING** RBT_MODEL_ERROR at ../src/lib/RbtMdlFileSource.cxx, line 413
C1 makes too many bonds
**WARNING** RBT_MODEL_ERROR at ../src/lib/RbtMdlFileSource.cxx, line 413
C2 makes too many bonds
**WARNING** RBT_MODEL_ERROR at ../src/lib/RbtMdlFileSource.cxx, line 413
C3 makes too many bonds
**WARNING** RBT_MODEL_ERROR at ../src/lib/RbtMdlFileSource.cxx, line 413
C4 makes too many bonds
**WARNING** RBT_MODEL_ERROR at ../src/lib/RbtMdlFileSource.cxx, line 413
C5 makes too many bonds
**WARNING** RBT_MODEL_ERROR at ../src/lib/RbtMdlFileSource.cxx, line 413
C6 makes too many bonds
**WARNING** RBT_MODEL_ERROR at ../src/lib/RbtMdlFileSource.cxx, line 413
N10 makes too many bonds
**WARNING** RBT_MODEL_ERROR at ../src/lib/RbtMdlFileSource.cxx, line 413
N11 makes too many bonds
**WARNING** RBT_MODEL_ERROR at ../src/lib/RbtMdlFileSource.cxx, line 413
C15 makes too many bonds

DOCKING SITE
Total volume 1342.88 A^3
Cavity #1	Size=10743 points; Vol=1342.88 A^3; Min=(34.5,-10.5,18.5); Max=(49.5,4.5,39.5); Center=(41.4788,-2.3412,31.3676); Extent=(15,15,21)

Cav = 10743; total = 10743
