***********************************************
The rDock program is licensed under GNU-LGPLv3.0. http://rdock.sourceforge.net/
Executable:	rbcavity ($Id: //depot/dev/client3/rdock/2013.1/src/exe/rbcavity.cxx#3 $)
Library:	libRbt.so/2013.1/901 2013/11/27
RBT_ROOT:	/home/jovyan/rDock_2013.1_src
RBT_HOME:	/home/jovyan
Current dir:	/home/jovyan/work/pdbbind_v2017_refined/4crl
Date:		Thu May 31 11:09:40 2018
***********************************************

Command line arguments:
-r 03_create_rdock_cavity.prm
-was
-d
WARNING SetupPartialIonicGroups: Inconsistent subunit names in atom list headed by UNK:ASP-_1:N
WARNING SetupPartialIonicGroups: Inconsistent subunit names in atom list headed by UNK:LYS_0:N
WARNING SetupPartialIonicGroups: Inconsistent subunit names in atom list headed by UNK:ASP_2:N
WARNING SetupPartialIonicGroups: Inconsistent subunit names in atom list headed by UNK:TYR_3:N
WARNING SetupPartialIonicGroups: Inconsistent subunit names in atom list headed by UNK:ASP_4:N
WARNING SetupPartialIonicGroups: Inconsistent subunit names in atom list headed by UNK:LYS_6:N
WARNING SetupPartialIonicGroups: Inconsistent subunit names in atom list headed by UNK:VAL_7:N
WARNING SetupPartialIonicGroups: Inconsistent subunit names in atom list headed by UNK:LYS_8:N
WARNING SetupPartialIonicGroups: Inconsistent subunit names in atom list headed by UNK:LEU_9:N
WARNING SetupPartialIonicGroups: Inconsistent subunit names in atom list headed by UNK:SER_10:N
WARNING SetupPartialIonicGroups: Inconsistent subunit names in atom list headed by UNK:SER_11:N
WARNING SetupPartialIonicGroups: Inconsistent subunit names in atom list headed by UNK:GLU_12:N
WARNING SetupPartialIonicGroups: Inconsistent subunit names in atom list headed by UNK:ARG_13:N
WARNING SetupPartialIonicGroups: Inconsistent subunit names in atom list headed by UNK:GLU_14:N
WARNING SetupPartialIonicGroups: Inconsistent subunit names in atom list headed by UNK:ARG_15:N
WARNING SetupPartialIonicGroups: Inconsistent subunit names in atom list headed by UNK:VAL_16:N
WARNING SetupPartialIonicGroups: Inconsistent subunit names in atom list headed by UNK:GLU_17:N
WARNING SetupPartialIonicGroups: Inconsistent subunit names in atom list headed by UNK:ASP_18:N
WARNING SetupPartialIonicGroups: Inconsistent subunit names in atom list headed by UNK:LEU_19:N
WARNING SetupPartialIonicGroups: Inconsistent subunit names in atom list headed by UNK:PHE_20:N
WARNING SetupPartialIonicGroups: Inconsistent subunit names in atom list headed by UNK:GLU_21:N
WARNING SetupPartialIonicGroups: Inconsistent subunit names in atom list headed by UNK:TYR_22:N
WARNING SetupPartialIonicGroups: Inconsistent subunit names in atom list headed by UNK:GLU_23:N
WARNING SetupPartialIonicGroups: Inconsistent subunit names in atom list headed by UNK:GLY_24:N
WARNING SetupPartialIonicGroups: Inconsistent subunit names in atom list headed by UNK:CYS_25:N
WARNING SetupPartialIonicGroups: Inconsistent subunit names in atom list headed by UNK:LYS_26:N
WARNING SetupPartialIonicGroups: Inconsistent subunit names in atom list headed by UNK:VAL_27:N
WARNING SetupPartialIonicGroups: Inconsistent subunit names in atom list headed by UNK:GLY_28:N
WARNING SetupPartialIonicGroups: Inconsistent subunit names in atom list headed by UNK:ARG_29:N
WARNING SetupPartialIonicGroups: Inconsistent subunit names in atom list headed by UNK:GLY_30:N
WARNING SetupPartialIonicGroups: Inconsistent subunit names in atom list headed by UNK:THR_31:N
WARNING SetupPartialIonicGroups: Inconsistent subunit names in atom list headed by UNK:TYR_32:N
WARNING SetupPartialIonicGroups: Inconsistent subunit names in atom list headed by UNK:GLY_33:N
WARNING SetupPartialIonicGroups: Inconsistent subunit names in atom list headed by UNK:HIS_34:N
WARNING SetupPartialIonicGroups: Inconsistent subunit names in atom list headed by UNK:VAL_35:N
WARNING SetupPartialIonicGroups: Inconsistent subunit names in atom list headed by UNK:TYR_36:N
WARNING SetupPartialIonicGroups: Inconsistent subunit names in atom list headed by UNK:LYS_37:N
WARNING SetupPartialIonicGroups: Inconsistent subunit names in atom list headed by UNK:ALA_38:N
WARNING SetupPartialIonicGroups: Inconsistent subunit names in atom list headed by UNK:ARG_40:N
WARNING SetupPartialIonicGroups: Inconsistent subunit names in atom list headed by UNK:LYS_41:N
WARNING SetupPartialIonicGroups: Inconsistent subunit names in atom list headed by UNK:ASP_42:N
WARNING SetupPartialIonicGroups: Inconsistent subunit names in atom list headed by UNK:GLY_43:N
WARNING SetupPartialIonicGroups: Inconsistent subunit names in atom list headed by UNK:LYS_44:N
WARNING SetupPartialIonicGroups: Inconsistent subunit names in atom list headed by UNK:ASP_45:N
WARNING SetupPartialIonicGroups: Inconsistent subunit names in atom list headed by UNK:ASP_46:N
WARNING SetupPartialIonicGroups: Inconsistent subunit names in atom list headed by UNK:LYS_47:N
WARNING SetupPartialIonicGroups: Inconsistent subunit names in atom list headed by UNK:ASP_48:N
WARNING SetupPartialIonicGroups: Inconsistent subunit names in atom list headed by UNK:TYR_49:N
WARNING SetupPartialIonicGroups: Inconsistent subunit names in atom list headed by UNK:LYS_52:N
WARNING SetupPartialIonicGroups: Inconsistent subunit names in atom list headed by UNK:GLN_53:N
WARNING SetupPartialIonicGroups: Inconsistent subunit names in atom list headed by UNK:ILE_54:N
WARNING SetupPartialIonicGroups: Inconsistent subunit names in atom list headed by UNK:GLU_55:N
WARNING SetupPartialIonicGroups: Inconsistent subunit names in atom list headed by UNK:GLY_56:N
WARNING SetupPartialIonicGroups: Inconsistent subunit names in atom list headed by UNK:THR_57:N
WARNING SetupPartialIonicGroups: Inconsistent subunit names in atom list headed by UNK:GLY_58:N
WARNING SetupPartialIonicGroups: Inconsistent subunit names in atom list headed by UNK:ILE_59:N
WARNING SetupPartialIonicGroups: Inconsistent subunit names in atom list headed by UNK:SER_60:N
WARNING SetupPartialIonicGroups: Inconsistent subunit names in atom list headed by UNK:MET_61:N
WARNING SetupPartialIonicGroups: Inconsistent subunit names in atom list headed by UNK:SER_62:N
WARNING SetupPartialIonicGroups: Inconsistent subunit names in atom list headed by UNK:CYS_64:N
WARNING SetupPartialIonicGroups: Inconsistent subunit names in atom list headed by UNK:ARG_65:N
WARNING SetupPartialIonicGroups: Inconsistent subunit names in atom list headed by UNK:GLU_66:N
WARNING SetupPartialIonicGroups: Inconsistent subunit names in atom list headed by UNK:ILE_67:N
WARNING SetupPartialIonicGroups: Inconsistent subunit names in atom list headed by UNK:ALA_68:N
WARNING SetupPartialIonicGroups: Inconsistent subunit names in atom list headed by UNK:LEU_69:N
WARNING SetupPartialIonicGroups: Inconsistent subunit names in atom list headed by UNK:LEU_70:N
WARNING SetupPartialIonicGroups: Inconsistent subunit names in atom list headed by UNK:GLU_72:N
WARNING SetupPartialIonicGroups: Inconsistent subunit names in atom list headed by UNK:LEU_73:N
WARNING SetupPartialIonicGroups: Inconsistent subunit names in atom list headed by UNK:LYS_74:N
WARNING SetupPartialIonicGroups: Inconsistent subunit names in atom list headed by UNK:HIS_75:N
WARNING SetupPartialIonicGroups: Inconsistent subunit names in atom list headed by UNK:PRO_76:N
WARNING SetupPartialIonicGroups: Inconsistent subunit names in atom list headed by UNK:ASN_77:N
WARNING SetupPartialIonicGroups: Inconsistent subunit names in atom list headed by UNK:VAL_78:N
WARNING SetupPartialIonicGroups: Inconsistent subunit names in atom list headed by UNK:ILE_79:N
WARNING SetupPartialIonicGroups: Inconsistent subunit names in atom list headed by UNK:LEU_81:N
WARNING SetupPartialIonicGroups: Inconsistent subunit names in atom list headed by UNK:GLN_82:N
WARNING SetupPartialIonicGroups: Inconsistent subunit names in atom list headed by UNK:LYS_83:N
WARNING SetupPartialIonicGroups: Inconsistent subunit names in atom list headed by UNK:PHE_85:N
WARNING SetupPartialIonicGroups: Inconsistent subunit names in atom list headed by UNK:LEU_86:N
WARNING SetupPartialIonicGroups: Inconsistent subunit names in atom list headed by UNK:SER_87:N
WARNING SetupPartialIonicGroups: Inconsistent subunit names in atom list headed by UNK:HIS_88:N
WARNING SetupPartialIonicGroups: Inconsistent subunit names in atom list headed by UNK:ALA_89:N
WARNING SetupPartialIonicGroups: Inconsistent subunit names in atom list headed by UNK:ASP_90:N
WARNING SetupPartialIonicGroups: Inconsistent subunit names in atom list headed by UNK:ARG_91:N
WARNING SetupPartialIonicGroups: Inconsistent subunit names in atom list headed by UNK:LYS_92:N
WARNING SetupPartialIonicGroups: Inconsistent subunit names in atom list headed by UNK:VAL_93:N
WARNING SetupPartialIonicGroups: Inconsistent subunit names in atom list headed by UNK:TRP_94:N
WARNING SetupPartialIonicGroups: Inconsistent subunit names in atom list headed by UNK:LEU_95:N
WARNING SetupPartialIonicGroups: Inconsistent subunit names in atom list headed by UNK:LEU_96:N
WARNING SetupPartialIonicGroups: Inconsistent subunit names in atom list headed by UNK:PHE_97:N
WARNING SetupPartialIonicGroups: Inconsistent subunit names in atom list headed by UNK:ASP_98:N
WARNING SetupPartialIonicGroups: Inconsistent subunit names in atom list headed by UNK:TYR_99:N
WARNING SetupPartialIonicGroups: Inconsistent subunit names in atom list headed by UNK:ALA_100:N
WARNING SetupPartialIonicGroups: Inconsistent subunit names in atom list headed by UNK:GLU_101:N
WARNING SetupPartialIonicGroups: Inconsistent subunit names in atom list headed by UNK:HIS_102:N
WARNING SetupPartialIonicGroups: Inconsistent subunit names in atom list headed by UNK:ASP_103:N
WARNING SetupPartialIonicGroups: Inconsistent subunit names in atom list headed by UNK:LEU_104:N
WARNING SetupPartialIonicGroups: Inconsistent subunit names in atom list headed by UNK:TRP_105:N
WARNING SetupPartialIonicGroups: Inconsistent subunit names in atom list headed by UNK:HIS_106:N
WARNING SetupPartialIonicGroups: Inconsistent subunit names in atom list headed by UNK:ILE_107:N
WARNING SetupPartialIonicGroups: Inconsistent subunit names in atom list headed by UNK:ILE_108:N
WARNING SetupPartialIonicGroups: Inconsistent subunit names in atom list headed by UNK:LYS_109:N
WARNING SetupPartialIonicGroups: Inconsistent subunit names in atom list headed by UNK:PHE_110:N
WARNING SetupPartialIonicGroups: Inconsistent subunit names in atom list headed by UNK:HIS_111:N
WARNING SetupPartialIonicGroups: Inconsistent subunit names in atom list headed by UNK:ARG_112:N
WARNING SetupPartialIonicGroups: Inconsistent subunit names in atom list headed by UNK:ALA_113:N
WARNING SetupPartialIonicGroups: Inconsistent subunit names in atom list headed by UNK:VAL_121:N
WARNING SetupPartialIonicGroups: Inconsistent subunit names in atom list headed by UNK:GLN_122:N
WARNING SetupPartialIonicGroups: Inconsistent subunit names in atom list headed by UNK:LEU_123:N
WARNING SetupPartialIonicGroups: Inconsistent subunit names in atom list headed by UNK:PRO_124:N
WARNING SetupPartialIonicGroups: Inconsistent subunit names in atom list headed by UNK:ARG_125:N
WARNING SetupPartialIonicGroups: Inconsistent subunit names in atom list headed by UNK:GLY_126:N
WARNING SetupPartialIonicGroups: Inconsistent subunit names in atom list headed by UNK:MET_127:N
WARNING SetupPartialIonicGroups: Inconsistent subunit names in atom list headed by UNK:VAL_128:N
WARNING SetupPartialIonicGroups: Inconsistent subunit names in atom list headed by UNK:LYS_129:N
WARNING SetupPartialIonicGroups: Inconsistent subunit names in atom list headed by UNK:SER_130:N
WARNING SetupPartialIonicGroups: Inconsistent subunit names in atom list headed by UNK:LEU_131:N
WARNING SetupPartialIonicGroups: Inconsistent subunit names in atom list headed by UNK:LEU_132:N
WARNING SetupPartialIonicGroups: Inconsistent subunit names in atom list headed by UNK:TYR_133:N
WARNING SetupPartialIonicGroups: Inconsistent subunit names in atom list headed by UNK:GLN_134:N
WARNING SetupPartialIonicGroups: Inconsistent subunit names in atom list headed by UNK:ASP_137:N
WARNING SetupPartialIonicGroups: Inconsistent subunit names in atom list headed by UNK:GLY_138:N
WARNING SetupPartialIonicGroups: Inconsistent subunit names in atom list headed by UNK:ILE_139:N
WARNING SetupPartialIonicGroups: Inconsistent subunit names in atom list headed by UNK:HIS_140:N
WARNING SetupPartialIonicGroups: Inconsistent subunit names in atom list headed by UNK:HIS_143:N
WARNING SetupPartialIonicGroups: Inconsistent subunit names in atom list headed by UNK:ALA_144:N
WARNING SetupPartialIonicGroups: Inconsistent subunit names in atom list headed by UNK:ASN_145:N
WARNING SetupPartialIonicGroups: Inconsistent subunit names in atom list headed by UNK:TRP_146:N
WARNING SetupPartialIonicGroups: Inconsistent subunit names in atom list headed by UNK:VAL_147:N
WARNING SetupPartialIonicGroups: Inconsistent subunit names in atom list headed by UNK:LEU_148:N
WARNING SetupPartialIonicGroups: Inconsistent subunit names in atom list headed by UNK:HIS_149:N
WARNING SetupPartialIonicGroups: Inconsistent subunit names in atom list headed by UNK:ARG_150:N
WARNING SetupPartialIonicGroups: Inconsistent subunit names in atom list headed by UNK:ASP_151:N
WARNING SetupPartialIonicGroups: Inconsistent subunit names in atom list headed by UNK:LEU_152:N
WARNING SetupPartialIonicGroups: Inconsistent subunit names in atom list headed by UNK:LYS_153:N
WARNING SetupPartialIonicGroups: Inconsistent subunit names in atom list headed by UNK:PRO_154:N
WARNING SetupPartialIonicGroups: Inconsistent subunit names in atom list headed by UNK:ALA_155:N
WARNING SetupPartialIonicGroups: Inconsistent subunit names in atom list headed by UNK:ASN_156:N
WARNING SetupPartialIonicGroups: Inconsistent subunit names in atom list headed by UNK:ILE_157:N
WARNING SetupPartialIonicGroups: Inconsistent subunit names in atom list headed by UNK:LEU_158:N
WARNING SetupPartialIonicGroups: Inconsistent subunit names in atom list headed by UNK:VAL_159:N
WARNING SetupPartialIonicGroups: Inconsistent subunit names in atom list headed by UNK:MET_160:N
WARNING SetupPartialIonicGroups: Inconsistent subunit names in atom list headed by UNK:GLY_161:N
WARNING SetupPartialIonicGroups: Inconsistent subunit names in atom list headed by UNK:GLU_162:N
WARNING SetupPartialIonicGroups: Inconsistent subunit names in atom list headed by UNK:GLY_163:N
WARNING SetupPartialIonicGroups: Inconsistent subunit names in atom list headed by UNK:PRO_164:N
WARNING SetupPartialIonicGroups: Inconsistent subunit names in atom list headed by UNK:GLU_165:N
WARNING SetupPartialIonicGroups: Inconsistent subunit names in atom list headed by UNK:ARG_166:N
WARNING SetupPartialIonicGroups: Inconsistent subunit names in atom list headed by UNK:ARG_168:N
WARNING SetupPartialIonicGroups: Inconsistent subunit names in atom list headed by UNK:VAL_169:N
WARNING SetupPartialIonicGroups: Inconsistent subunit names in atom list headed by UNK:LYS_170:N
WARNING SetupPartialIonicGroups: Inconsistent subunit names in atom list headed by UNK:ILE_171:N
WARNING SetupPartialIonicGroups: Inconsistent subunit names in atom list headed by UNK:ALA_172:N
WARNING SetupPartialIonicGroups: Inconsistent subunit names in atom list headed by UNK:ASP_173:N
WARNING SetupPartialIonicGroups: Inconsistent subunit names in atom list headed by UNK:MET_174:N
WARNING SetupPartialIonicGroups: Inconsistent subunit names in atom list headed by UNK:GLY_175:N
WARNING SetupPartialIonicGroups: Inconsistent subunit names in atom list headed by UNK:PHE_176:N
WARNING SetupPartialIonicGroups: Inconsistent subunit names in atom list headed by UNK:ALA_177:N
WARNING SetupPartialIonicGroups: Inconsistent subunit names in atom list headed by UNK:LEU_179:N
WARNING SetupPartialIonicGroups: Inconsistent subunit names in atom list headed by UNK:PHE_180:N
WARNING SetupPartialIonicGroups: Inconsistent subunit names in atom list headed by UNK:SER_182:N
WARNING SetupPartialIonicGroups: Inconsistent subunit names in atom list headed by UNK:PRO_183:N
WARNING SetupPartialIonicGroups: Inconsistent subunit names in atom list headed by UNK:LEU_184:N
WARNING SetupPartialIonicGroups: Inconsistent subunit names in atom list headed by UNK:VAL_195:N
WARNING SetupPartialIonicGroups: Inconsistent subunit names in atom list headed by UNK:THR_196:N
WARNING SetupPartialIonicGroups: Inconsistent subunit names in atom list headed by UNK:PHE_197:N
WARNING SetupPartialIonicGroups: Inconsistent subunit names in atom list headed by UNK:TRP_198:N
WARNING SetupPartialIonicGroups: Inconsistent subunit names in atom list headed by UNK:TYR_199:N
WARNING SetupPartialIonicGroups: Inconsistent subunit names in atom list headed by UNK:ARG_200:N
WARNING SetupPartialIonicGroups: Inconsistent subunit names in atom list headed by UNK:ALA_201:N
WARNING SetupPartialIonicGroups: Inconsistent subunit names in atom list headed by UNK:PRO_202:N
WARNING SetupPartialIonicGroups: Inconsistent subunit names in atom list headed by UNK:GLU_203:N
WARNING SetupPartialIonicGroups: Inconsistent subunit names in atom list headed by UNK:LEU_204:N
WARNING SetupPartialIonicGroups: Inconsistent subunit names in atom list headed by UNK:LEU_205:N
WARNING SetupPartialIonicGroups: Inconsistent subunit names in atom list headed by UNK:LEU_206:N
WARNING SetupPartialIonicGroups: Inconsistent subunit names in atom list headed by UNK:GLY_207:N
WARNING SetupPartialIonicGroups: Inconsistent subunit names in atom list headed by UNK:ALA_208:N
WARNING SetupPartialIonicGroups: Inconsistent subunit names in atom list headed by UNK:ARG_209:N
WARNING SetupPartialIonicGroups: Inconsistent subunit names in atom list headed by UNK:HIS_210:N
WARNING SetupPartialIonicGroups: Inconsistent subunit names in atom list headed by UNK:TYR_211:N
WARNING SetupPartialIonicGroups: Inconsistent subunit names in atom list headed by UNK:THR_212:N
WARNING SetupPartialIonicGroups: Inconsistent subunit names in atom list headed by UNK:LYS_213:N
WARNING SetupPartialIonicGroups: Inconsistent subunit names in atom list headed by UNK:ALA_214:N
WARNING SetupPartialIonicGroups: Inconsistent subunit names in atom list headed by UNK:ILE_215:N
WARNING SetupPartialIonicGroups: Inconsistent subunit names in atom list headed by UNK:ASP_216:N
WARNING SetupPartialIonicGroups: Inconsistent subunit names in atom list headed by UNK:ILE_217:N
WARNING SetupPartialIonicGroups: Inconsistent subunit names in atom list headed by UNK:TRP_218:N
WARNING SetupPartialIonicGroups: Inconsistent subunit names in atom list headed by UNK:ALA_219:N
WARNING SetupPartialIonicGroups: Inconsistent subunit names in atom list headed by UNK:ILE_220:N
WARNING SetupPartialIonicGroups: Inconsistent subunit names in atom list headed by UNK:GLY_221:N
WARNING SetupPartialIonicGroups: Inconsistent subunit names in atom list headed by UNK:CYS_222:N
WARNING SetupPartialIonicGroups: Inconsistent subunit names in atom list headed by UNK:ILE_223:N
WARNING SetupPartialIonicGroups: Inconsistent subunit names in atom list headed by UNK:PHE_224:N
WARNING SetupPartialIonicGroups: Inconsistent subunit names in atom list headed by UNK:ALA_225:N
WARNING SetupPartialIonicGroups: Inconsistent subunit names in atom list headed by UNK:GLU_226:N
WARNING SetupPartialIonicGroups: Inconsistent subunit names in atom list headed by UNK:LEU_227:N
WARNING SetupPartialIonicGroups: Inconsistent subunit names in atom list headed by UNK:THR_229:N
WARNING SetupPartialIonicGroups: Inconsistent subunit names in atom list headed by UNK:SER_230:N
WARNING SetupPartialIonicGroups: Inconsistent subunit names in atom list headed by UNK:GLU_231:N
WARNING SetupPartialIonicGroups: Inconsistent subunit names in atom list headed by UNK:PRO_232:N
WARNING SetupPartialIonicGroups: Inconsistent subunit names in atom list headed by UNK:ILE_233:N
WARNING SetupPartialIonicGroups: Inconsistent subunit names in atom list headed by UNK:PHE_234:N
WARNING SetupPartialIonicGroups: Inconsistent subunit names in atom list headed by UNK:HIS_235:N
WARNING SetupPartialIonicGroups: Inconsistent subunit names in atom list headed by UNK:CYS_236:N
WARNING SetupPartialIonicGroups: Inconsistent subunit names in atom list headed by UNK:ARG_237:N
WARNING SetupPartialIonicGroups: Inconsistent subunit names in atom list headed by UNK:GLN_238:N
WARNING SetupPartialIonicGroups: Inconsistent subunit names in atom list headed by UNK:PRO_246:N
WARNING SetupPartialIonicGroups: Inconsistent subunit names in atom list headed by UNK:TYR_247:N
WARNING SetupPartialIonicGroups: Inconsistent subunit names in atom list headed by UNK:HIS_248:N
WARNING SetupPartialIonicGroups: Inconsistent subunit names in atom list headed by UNK:HIS_249:N
WARNING SetupPartialIonicGroups: Inconsistent subunit names in atom list headed by UNK:ASP_250:N
WARNING SetupPartialIonicGroups: Inconsistent subunit names in atom list headed by UNK:GLN_251:N
WARNING SetupPartialIonicGroups: Inconsistent subunit names in atom list headed by UNK:LEU_252:N
WARNING SetupPartialIonicGroups: Inconsistent subunit names in atom list headed by UNK:ASP_253:N
WARNING SetupPartialIonicGroups: Inconsistent subunit names in atom list headed by UNK:ARG_254:N
WARNING SetupPartialIonicGroups: Inconsistent subunit names in atom list headed by UNK:ILE_255:N
WARNING SetupPartialIonicGroups: Inconsistent subunit names in atom list headed by UNK:PHE_256:N
WARNING SetupPartialIonicGroups: Inconsistent subunit names in atom list headed by UNK:ASN_257:N
WARNING SetupPartialIonicGroups: Inconsistent subunit names in atom list headed by UNK:VAL_258:N
WARNING SetupPartialIonicGroups: Inconsistent subunit names in atom list headed by UNK:MET_259:N
WARNING SetupPartialIonicGroups: Inconsistent subunit names in atom list headed by UNK:GLY_260:N
WARNING SetupPartialIonicGroups: Inconsistent subunit names in atom list headed by UNK:PHE_261:N
WARNING SetupPartialIonicGroups: Inconsistent subunit names in atom list headed by UNK:ALA_263:N
WARNING SetupPartialIonicGroups: Inconsistent subunit names in atom list headed by UNK:ASP_264:N
RbtMOL2FileSource: INFO Removing orphan hydrogen UNK:ARG_40:1HH1
RbtMOL2FileSource: INFO Removing orphan hydrogen UNK:ARG_40:2HH1
RbtMOL2FileSource: INFO Removing orphan hydrogen UNK:ARG_58:1HH1
RbtMOL2FileSource: INFO Removing orphan hydrogen UNK:ARG_157:1HH1
RbtMOL2FileSource: INFO Removing orphan hydrogen UNK:ARG_157:2HH1
RbtMOL2FileSource: INFO Removing orphan hydrogen UNK:ARG_185:1HH1
RbtMOL2FileSource: INFO Removing orphan hydrogen UNK:ARG_185:2HH1
RbtMOL2FileSource: INFO Removing orphan hydrogen UNK:ARG_284:1HH1
RbtMOL2FileSource: INFO Removing orphan hydrogen UNK:ARG_284:2HH1
RbtMOL2FileSource: INFO Removing orphan hydrogen UNK:ARG_356:1HH1

MAPPER
CLASS	RbtLigandSiteMapper
ENABLED	TRUE
GRIDSTEP	0.5
MAX_CAVITIES	1
MIN_VOLUME	100
NAME	MAPPER
RADIUS	6.0
REF_MOL	4crl_ligand.sdf
SMALL_SPHERE	1.0
TRACE	0
VOL_INCR	0.0

RBT_MODEL_ERROR at ../src/lib/RbtMdlFileSource.cxx, line 298
C26 makes a bond with an unknown bond order
RBT_MODEL_ERROR at ../src/lib/RbtMdlFileSource.cxx, line 298
C27 makes a bond with an unknown bond order
RBT_MODEL_ERROR at ../src/lib/RbtMdlFileSource.cxx, line 298
C28 makes a bond with an unknown bond order
RBT_MODEL_ERROR at ../src/lib/RbtMdlFileSource.cxx, line 298
C29 makes a bond with an unknown bond order
RBT_MODEL_ERROR at ../src/lib/RbtMdlFileSource.cxx, line 298
N30 makes a bond with an unknown bond order
RBT_MODEL_ERROR at ../src/lib/RbtMdlFileSource.cxx, line 298
C31 makes a bond with an unknown bond order
RBT_MODEL_ERROR at ../src/lib/RbtMdlFileSource.cxx, line 298
C32 makes a bond with an unknown bond order
RBT_MODEL_ERROR at ../src/lib/RbtMdlFileSource.cxx, line 298
C33 makes a bond with an unknown bond order
RBT_MODEL_ERROR at ../src/lib/RbtMdlFileSource.cxx, line 298
C34 makes a bond with an unknown bond order
RBT_MODEL_ERROR at ../src/lib/RbtMdlFileSource.cxx, line 298
C35 makes a bond with an unknown bond order
**WARNING** RBT_MODEL_ERROR at ../src/lib/RbtMdlFileSource.cxx, line 413
C26 makes too many bonds
**WARNING** RBT_MODEL_ERROR at ../src/lib/RbtMdlFileSource.cxx, line 413
C27 makes too many bonds
**WARNING** RBT_MODEL_ERROR at ../src/lib/RbtMdlFileSource.cxx, line 413
C28 makes too many bonds
**WARNING** RBT_MODEL_ERROR at ../src/lib/RbtMdlFileSource.cxx, line 413
C29 makes too many bonds
**WARNING** RBT_MODEL_ERROR at ../src/lib/RbtMdlFileSource.cxx, line 413
N30 makes too many bonds
**WARNING** RBT_MODEL_ERROR at ../src/lib/RbtMdlFileSource.cxx, line 413
C31 makes too many bonds
**WARNING** RBT_MODEL_ERROR at ../src/lib/RbtMdlFileSource.cxx, line 413
C32 makes too many bonds
**WARNING** RBT_MODEL_ERROR at ../src/lib/RbtMdlFileSource.cxx, line 413
C33 makes too many bonds
**WARNING** RBT_MODEL_ERROR at ../src/lib/RbtMdlFileSource.cxx, line 413
C34 makes too many bonds
**WARNING** RBT_MODEL_ERROR at ../src/lib/RbtMdlFileSource.cxx, line 413
C35 makes too many bonds

DOCKING SITE
Total volume 2103.75 A^3
Cavity #1	Size=16830 points; Vol=2103.75 A^3; Min=(-13,4,-17); Max=(10.5,23.5,4.5); Center=(-0.118598,15.247,-5.81123); Extent=(23.5,19.5,21.5)

Cav = 16830; total = 16830
