***********************************************
The rDock program is licensed under GNU-LGPLv3.0. http://rdock.sourceforge.net/
Executable:	rbdock ($Id: //depot/dev/client3/rdock/2013.1/src/exe/rbdock.cxx#4 $)
Library:	libRbt.so/2013.1/901 2013/11/27
RBT_ROOT:	/home/jovyan/rDock_2013.1_src
RBT_HOME:	/home/jovyan
Current dir:	/home/jovyan/work/pdbbind_v2017_refined/3o7u
Date:		Thu May 31 12:53:00 2018
***********************************************


Command line args:
 -i 3o7u_ligand.sdf
 -r 03_create_rdock_cavity.prm
 -p dock.prm
 -o 04_out_3o7u
 -n 1
Reading polar hydrogens only from ligand SD file

DOCKING PROTOCOL:
/home/jovyan/rDock_2013.1_src/data/scripts/dock.prm
Free docking (indexed VDW)

RECEPTOR:
03_create_rdock_cavity.prm
3o7u

DOCKING SITE
Total volume 326.75 A^3
Cavity #1	Size=2614 points; Vol=326.75 A^3; Min=(-74,12.5,-24); Max=(-63,25.5,-10); Center=(-68.0013,19.1605,-16.1398); Extent=(11,13,14)

RbtMOL2FileSource: INFO Removing orphan hydrogen UNK:ARG_12:H01
RbtMOL2FileSource: INFO Removing orphan hydrogen UNK:ARG_103:1HH1
RbtMOL2FileSource: INFO Removing orphan hydrogen UNK:ARG_103:2HH1
RbtMOL2FileSource: INFO Removing orphan hydrogen UNK:ARG_190:1HH1
RbtMOL2FileSource: INFO Removing orphan hydrogen UNK:ARG_209:2HH1
RbtMOL2FileSource: INFO Removing orphan hydrogen UNK:ARG_209:2HH1
RbtMOL2FileSource: INFO Removing orphan hydrogen UNK:ARG_224:H01
RbtMOL2FileSource: INFO Removing orphan hydrogen UNK:ARG_224:1HH1
RbtMOL2FileSource: INFO Removing orphan hydrogen UNK:ARG_224:2HH1
RbtMOL2FileSource: INFO Removing orphan hydrogen UNK:ARG_241:1HH1
RbtMOL2FileSource: INFO Removing orphan hydrogen UNK:ARG_241:2HH1
RbtMOL2FileSource: INFO Removing orphan hydrogen UNK:ARG_241:H01
RbtMOL2FileSource: INFO Removing orphan hydrogen UNK:ARG_263:H01
RbtMOL2FileSource: INFO Removing orphan hydrogen UNK:ARG_285:H01
RbtMOL2FileSource: INFO Removing orphan hydrogen UNK:ARG_292:H01
RbtMOL2FileSource: INFO Removing orphan hydrogen UNK:ARG_293:1HH1
RbtMOL2FileSource: INFO Removing orphan hydrogen UNK:ARG_293:1HH1
RbtMOL2FileSource: INFO Removing orphan hydrogen UNK:ARG_293:2HH1
RbtMOL2FileSource: INFO Removing orphan hydrogen UNK:ARG_293:1HH1
RbtMOL2FileSource: INFO Removing orphan hydrogen UNK:ARG_293:2HH1
RbtMOL2FileSource: INFO Removing orphan hydrogen UNK:ARG_293:1HH1
RbtMOL2FileSource: INFO Removing orphan hydrogen UNK:ARG_297:1HH1
RbtMOL2FileSource: INFO Removing orphan hydrogen UNK:ARG_297:2HH1
RbtMOL2FileSource: INFO Removing orphan hydrogen UNK:ARG_297:H01
RbtMOL2FileSource: INFO Removing orphan hydrogen UNK:ARG_297:1HH1
RbtMOL2FileSource: INFO Removing orphan hydrogen UNK:ARG_297:2HH1
RbtMOL2FileSource: INFO Removing orphan hydrogen UNK:ARG_359:1HH1
RbtMOL2FileSource: INFO Removing orphan hydrogen UNK:ARG_359:2HH1
RbtMOL2FileSource: INFO Removing orphan hydrogen UNK:ARG_359:1HH1
RbtMOL2FileSource: INFO Removing orphan hydrogen UNK:ARG_359:2HH1
RbtMOL2FileSource: INFO Removing orphan hydrogen UNK:ARG_389:2HH1
RbtMOL2FileSource: INFO Removing orphan hydrogen UNK:ARG_389:H01
RbtMOL2FileSource: INFO Removing orphan hydrogen UNK:ARG_389:1HH1
RbtMOL2FileSource: INFO Removing orphan hydrogen UNK:ARG_389:2HH1
RbtMOL2FileSource: INFO Removing orphan hydrogen UNK:ARG_389:2HH1
RbtMOL2FileSource: INFO Removing orphan hydrogen UNK:ARG_390:2HH1
RbtMOL2FileSource: INFO Removing orphan hydrogen UNK:ARG_390:H01
RbtMOL2FileSource: INFO Removing orphan hydrogen UNK:ARG_390:2HH1
RbtMOL2FileSource: INFO Removing orphan hydrogen UNK:ARG_399:H01
RbtMOL2FileSource: INFO Removing orphan hydrogen UNK:ARG_399:1HH1
RbtMOL2FileSource: INFO Removing orphan hydrogen UNK:ARG_399:2HH1

No solvent

------------- Terminate filter 0------------

if (SCORE.NRUNS - 0 ) > 0 then
	0.0 
else
	-1.0 
end


**************************************************
RECORD #1
NAME:   3o7u_ligand
RANDOM_NUMBER_SEED:           1527771180

END OF RUN
