***********************************************
The rDock program is licensed under GNU-LGPLv3.0. http://rdock.sourceforge.net/
Executable:	rbcavity ($Id: //depot/dev/client3/rdock/2013.1/src/exe/rbcavity.cxx#3 $)
Library:	libRbt.so/2013.1/901 2013/11/27
RBT_ROOT:	/home/jovyan/rDock_2013.1_src
RBT_HOME:	/home/jovyan
Current dir:	/home/jovyan/work/pdbbind_v2017_refined/4er2
Date:		Thu May 31 11:11:58 2018
***********************************************

Command line arguments:
-r 03_create_rdock_cavity.prm
-was
-d
WARNING SetupPartialIonicGroups: Inconsistent subunit names in atom list headed by UNK:THR_63:N
WARNING SetupPartialIonicGroups: Inconsistent subunit names in atom list headed by UNK:THR_134:N
WARNING SetupPartialIonicGroups: Inconsistent subunit names in atom list headed by UNK:VAL_184:N
WARNING SetupPartialIonicGroups: Inconsistent subunit names in atom list headed by UNK:THR_203:N
WARNING SetupPartialIonicGroups: Inconsistent subunit names in atom list headed by UNK:LYS_204:N
WARNING SetupPartialIonicGroups: Inconsistent subunit names in atom list headed by UNK:ALA_238:N
WARNING SetupPartialIonicGroups: Inconsistent subunit names in atom list headed by UNK:THR_319:N

MAPPER
CLASS	RbtLigandSiteMapper
ENABLED	TRUE
GRIDSTEP	0.5
MAX_CAVITIES	1
MIN_VOLUME	100
NAME	MAPPER
RADIUS	6.0
REF_MOL	4er2_ligand.sdf
SMALL_SPHERE	1.0
TRACE	0
VOL_INCR	0.0

**WARNING** RBT_MODEL_ERROR at ../src/lib/RbtMdlFileSource.cxx, line 413
C46 makes too many bonds

DOCKING SITE
Total volume 3167.38 A^3
Cavity #1	Size=25339 points; Vol=3167.38 A^3; Min=(-7.5,17.5,5); Max=(12.5,48,27); Center=(1.14531,33.6196,16.9099); Extent=(20,30.5,22)

Cav = 25339; total = 25339
