***********************************************
The rDock program is licensed under GNU-LGPLv3.0. http://rdock.sourceforge.net/
Executable:	rbcavity ($Id: //depot/dev/client3/rdock/2013.1/src/exe/rbcavity.cxx#3 $)
Library:	libRbt.so/2013.1/901 2013/11/27
RBT_ROOT:	/home/jovyan/rDock_2013.1_src
RBT_HOME:	/home/jovyan
Current dir:	/home/jovyan/work/pdbbind_v2017_refined/1wcq
Date:		Thu May 31 10:20:58 2018
***********************************************

Command line arguments:
-r 03_create_rdock_cavity.prm
-was
-d
RbtMOL2FileSource: INFO Removing orphan hydrogen UNK:ARG_102:1HH1
RbtMOL2FileSource: INFO Removing orphan hydrogen UNK:ARG_102:2HH1
RbtMOL2FileSource: INFO Removing orphan hydrogen UNK:ARG_284:2HH1
RbtMOL2FileSource: INFO Removing orphan hydrogen UNK:ARG_461:1HH1
RbtMOL2FileSource: INFO Removing orphan hydrogen UNK:ARG_479:1HH1
RbtMOL2FileSource: INFO Removing orphan hydrogen UNK:ARG_481:1HH1
RbtMOL2FileSource: INFO Removing orphan hydrogen UNK:ARG_481:2HH1
RbtMOL2FileSource: INFO Removing orphan hydrogen UNK:ARG_487:1HH1
RbtMOL2FileSource: INFO Removing orphan hydrogen UNK:ARG_487:2HH1
RbtMOL2FileSource: INFO Removing orphan hydrogen UNK:ARG_521:1HH1
RbtMOL2FileSource: INFO Removing orphan hydrogen UNK:ARG_521:2HH1
RbtMOL2FileSource: INFO Removing orphan hydrogen UNK:ARG_620:1HH1
RbtMOL2FileSource: INFO Removing orphan hydrogen UNK:ARG_620:2HH1

MAPPER
CLASS	RbtLigandSiteMapper
ENABLED	TRUE
GRIDSTEP	0.5
MAX_CAVITIES	1
MIN_VOLUME	100
NAME	MAPPER
RADIUS	6.0
REF_MOL	1wcq_ligand.sdf
SMALL_SPHERE	1.0
TRACE	0
VOL_INCR	0.0

**WARNING** RBT_MODEL_ERROR at ../src/lib/RbtMdlFileSource.cxx, line 413
C1 makes too many bonds

DOCKING SITE
Total volume 1153.12 A^3
Cavity #1	Size=9225 points; Vol=1153.12 A^3; Min=(-40.5,47,66); Max=(-25.5,65,83); Center=(-32.7893,56.7677,73.5347); Extent=(15,18,17)

Cav = 9225; total = 9225
