***********************************************
The rDock program is licensed under GNU-LGPLv3.0. http://rdock.sourceforge.net/
Executable:	rbcavity ($Id: //depot/dev/client3/rdock/2013.1/src/exe/rbcavity.cxx#3 $)
Library:	libRbt.so/2013.1/901 2013/11/27
RBT_ROOT:	/home/jovyan/rDock_2013.1_src
RBT_HOME:	/home/jovyan
Current dir:	/home/jovyan/work/pdbbind_v2017_refined/1wc1
Date:		Thu May 31 10:20:58 2018
***********************************************

Command line arguments:
-r 03_create_rdock_cavity.prm
-was
-d
RbtMOL2FileSource: INFO Removing orphan hydrogen UNK:ARG_1023:2HH1
RbtMOL2FileSource: INFO Removing orphan hydrogen UNK:ARG_1023:2HH1
RbtMOL2FileSource: INFO Removing orphan hydrogen UNK:ARG_1108:1HH1
RbtMOL2FileSource: INFO Removing orphan hydrogen UNK:ARG_1108:1HH1
RbtMOL2FileSource: INFO Removing orphan hydrogen UNK:ARG_1150:1HH1
RbtMOL2FileSource: INFO Removing orphan hydrogen UNK:ARG_1150:2HH1
RbtMOL2FileSource: INFO Removing orphan hydrogen UNK:ARG_1150:1HH1
RbtMOL2FileSource: INFO Removing orphan hydrogen UNK:ARG_1150:2HH1
RbtMOL2FileSource: INFO Removing orphan hydrogen UNK:ARG_1178:1HH1
RbtMOL2FileSource: INFO Removing orphan hydrogen UNK:ARG_1178:2HH1
RbtMOL2FileSource: INFO Removing orphan hydrogen UNK:ARG_1178:1HH1
RbtMOL2FileSource: INFO Removing orphan hydrogen UNK:ARG_1178:2HH1

MAPPER
CLASS	RbtLigandSiteMapper
ENABLED	TRUE
GRIDSTEP	0.5
MAX_CAVITIES	1
MIN_VOLUME	100
NAME	MAPPER
RADIUS	6.0
REF_MOL	1wc1_ligand.sdf
SMALL_SPHERE	1.0
TRACE	0
VOL_INCR	0.0

RBT_MODEL_ERROR at ../src/lib/RbtMdlFileSource.cxx, line 298
C25 makes a bond with an unknown bond order
RBT_MODEL_ERROR at ../src/lib/RbtMdlFileSource.cxx, line 298
C26 makes a bond with an unknown bond order
RBT_MODEL_ERROR at ../src/lib/RbtMdlFileSource.cxx, line 298
N28 makes a bond with an unknown bond order
RBT_MODEL_ERROR at ../src/lib/RbtMdlFileSource.cxx, line 298
C29 makes a bond with an unknown bond order
RBT_MODEL_ERROR at ../src/lib/RbtMdlFileSource.cxx, line 298
N30 makes a bond with an unknown bond order
RBT_MODEL_ERROR at ../src/lib/RbtMdlFileSource.cxx, line 298
C31 makes a bond with an unknown bond order
**WARNING** RBT_MODEL_ERROR at ../src/lib/RbtMdlFileSource.cxx, line 413
P1 makes too many bonds
**WARNING** RBT_MODEL_ERROR at ../src/lib/RbtMdlFileSource.cxx, line 413
P5 makes too many bonds
**WARNING** RBT_MODEL_ERROR at ../src/lib/RbtMdlFileSource.cxx, line 413
P9 makes too many bonds
**WARNING** RBT_MODEL_ERROR at ../src/lib/RbtMdlFileSource.cxx, line 413
C25 makes too many bonds
**WARNING** RBT_MODEL_ERROR at ../src/lib/RbtMdlFileSource.cxx, line 413
C26 makes too many bonds
**WARNING** RBT_MODEL_ERROR at ../src/lib/RbtMdlFileSource.cxx, line 413
N28 makes too many bonds
**WARNING** RBT_MODEL_ERROR at ../src/lib/RbtMdlFileSource.cxx, line 413
C29 makes too many bonds
**WARNING** RBT_MODEL_ERROR at ../src/lib/RbtMdlFileSource.cxx, line 413
N30 makes too many bonds
**WARNING** RBT_MODEL_ERROR at ../src/lib/RbtMdlFileSource.cxx, line 413
C31 makes too many bonds

DOCKING SITE
Total volume 1757.5 A^3
Cavity #1	Size=14060 points; Vol=1757.5 A^3; Min=(24.5,33.5,139); Max=(47.5,53.5,154.5); Center=(37.8471,43.2852,146.404); Extent=(23,20,15.5)

Cav = 14060; total = 14060
