***********************************************
The rDock program is licensed under GNU-LGPLv3.0. http://rdock.sourceforge.net/
Executable:	rbdock ($Id: //depot/dev/client3/rdock/2013.1/src/exe/rbdock.cxx#4 $)
Library:	libRbt.so/2013.1/901 2013/11/27
RBT_ROOT:	/home/jovyan/rDock_2013.1_src
RBT_HOME:	/home/jovyan
Current dir:	/home/jovyan/work/pdbbind_v2017_refined/2ri9
Date:		Thu May 31 12:35:02 2018
***********************************************


Command line args:
 -i 2ri9_ligand.sdf
 -r 03_create_rdock_cavity.prm
 -p dock.prm
 -o 04_out_2ri9
 -n 1
Reading polar hydrogens only from ligand SD file

DOCKING PROTOCOL:
/home/jovyan/rDock_2013.1_src/data/scripts/dock.prm
Free docking (indexed VDW)

RECEPTOR:
03_create_rdock_cavity.prm
2ri9

DOCKING SITE
Total volume 663.625 A^3
Cavity #1	Size=5309 points; Vol=663.625 A^3; Min=(29,19.5,-50); Max=(41.5,34,-36); Center=(34.5142,27.8098,-42.4021); Extent=(12.5,14.5,14)

RbtMOL2FileSource: INFO Removing orphan hydrogen UNK:ARG_1259:1HH1
RbtMOL2FileSource: INFO Removing orphan hydrogen UNK:ARG_1309:1HH1
RbtMOL2FileSource: INFO Removing orphan hydrogen UNK:ARG_1309:2HH1
RbtMOL2FileSource: INFO Removing orphan hydrogen UNK:ARG_1321:1HH1
RbtMOL2FileSource: INFO Removing orphan hydrogen UNK:ARG_1321:2HH1
RbtMOL2FileSource: INFO Removing orphan hydrogen UNK:ARG_1427:1HH1

No solvent

------------- Terminate filter 0------------

if (SCORE.NRUNS - 0 ) > 0 then
	0.0 
else
	-1.0 
end


**************************************************
RECORD #1
NAME:   2ri9_ligand
RANDOM_NUMBER_SEED:           1527770102

END OF RUN
