***********************************************
The rDock program is licensed under GNU-LGPLv3.0. http://rdock.sourceforge.net/
Executable:	rbdock ($Id: //depot/dev/client3/rdock/2013.1/src/exe/rbdock.cxx#4 $)
Library:	libRbt.so/2013.1/901 2013/11/27
RBT_ROOT:	/home/jovyan/rDock_2013.1_src
RBT_HOME:	/home/jovyan
Current dir:	/home/jovyan/work/pdbbind_v2017_refined/3f78
Date:		Thu May 31 12:46:16 2018
***********************************************


Command line args:
 -i 3f78_ligand.sdf
 -r 03_create_rdock_cavity.prm
 -p dock.prm
 -o 04_out_3f78
 -n 1
Reading polar hydrogens only from ligand SD file

DOCKING PROTOCOL:
/home/jovyan/rDock_2013.1_src/data/scripts/dock.prm
Free docking (indexed VDW)

RECEPTOR:
03_create_rdock_cavity.prm
3f78

DOCKING SITE
Total volume 401 A^3
Cavity #1	Size=3208 points; Vol=401 A^3; Min=(21.5,11.5,-0.5); Max=(33.5,25.5,14); Center=(27.1574,18.5803,5.90602); Extent=(12,14,14.5)


No solvent

------------- Terminate filter 0------------

if (SCORE.NRUNS - 0 ) > 0 then
	0.0 
else
	-1.0 
end


**************************************************
RECORD #1
NAME:   3f78_ligand
RANDOM_NUMBER_SEED:           1527770776

END OF RUN
