***********************************************
The rDock program is licensed under GNU-LGPLv3.0. http://rdock.sourceforge.net/
Executable:	rbcavity ($Id: //depot/dev/client3/rdock/2013.1/src/exe/rbcavity.cxx#3 $)
Library:	libRbt.so/2013.1/901 2013/11/27
RBT_ROOT:	/home/jovyan/rDock_2013.1_src
RBT_HOME:	/home/jovyan
Current dir:	/home/jovyan/work/pdbbind_v2017_refined/1kv5
Date:		Thu May 31 10:10:40 2018
***********************************************

Command line arguments:
-r 03_create_rdock_cavity.prm
-was
-d
RbtMOL2FileSource: INFO Removing orphan hydrogen UNK:ARG_98:2HH1
RbtMOL2FileSource: INFO Removing orphan hydrogen UNK:ARG_138:1HH1
RbtMOL2FileSource: INFO Removing orphan hydrogen UNK:ARG_138:2HH1
RbtMOL2FileSource: INFO Removing orphan hydrogen UNK:ARG_226:2HH1

MAPPER
CLASS	RbtLigandSiteMapper
ENABLED	TRUE
GRIDSTEP	0.5
MAX_CAVITIES	1
MIN_VOLUME	100
NAME	MAPPER
RADIUS	6.0
REF_MOL	1kv5_ligand.sdf
SMALL_SPHERE	1.0
TRACE	0
VOL_INCR	0.0

**WARNING** RBT_MODEL_ERROR at ../src/lib/RbtMdlFileSource.cxx, line 413
P1 makes too many bonds
**WARNING** RBT_MODEL_ERROR at ../src/lib/RbtMdlFileSource.cxx, line 413
C7 makes too many bonds

DOCKING SITE
Total volume 532.75 A^3
Cavity #1	Size=4262 points; Vol=532.75 A^3; Min=(-17,-13.5,41); Max=(-3.5,0.5,55); Center=(-10.6201,-5.63914,49.1949); Extent=(13.5,14,14)

Cav = 4262; total = 4262
