***********************************************
The rDock program is licensed under GNU-LGPLv3.0. http://rdock.sourceforge.net/
Executable:	rbcavity ($Id: //depot/dev/client3/rdock/2013.1/src/exe/rbcavity.cxx#3 $)
Library:	libRbt.so/2013.1/901 2013/11/27
RBT_ROOT:	/home/jovyan/rDock_2013.1_src
RBT_HOME:	/home/jovyan
Current dir:	/home/jovyan/work/pdbbind_v2017_refined/3hkq
Date:		Thu May 31 10:49:51 2018
***********************************************

Command line arguments:
-r 03_create_rdock_cavity.prm
-was
-d
RbtMOL2FileSource: INFO Removing orphan hydrogen UNK:ARG_181:1HH1
RbtMOL2FileSource: INFO Removing orphan hydrogen UNK:ARG_181:2HH1
RbtMOL2FileSource: INFO Removing orphan hydrogen UNK:ARG_253:1HH1
RbtMOL2FileSource: INFO Removing orphan hydrogen UNK:ARG_253:2HH1

MAPPER
CLASS	RbtLigandSiteMapper
ENABLED	TRUE
GRIDSTEP	0.5
MAX_CAVITIES	1
MIN_VOLUME	100
NAME	MAPPER
RADIUS	6.0
REF_MOL	3hkq_ligand.sdf
SMALL_SPHERE	1.0
TRACE	0
VOL_INCR	0.0


DOCKING SITE
Total volume 860.25 A^3
Cavity #1	Size=6882 points; Vol=860.25 A^3; Min=(11.5,-3.5,6); Max=(23,13,21.5); Center=(17.1326,5.34743,13.0238); Extent=(11.5,16.5,15.5)

Cav = 6882; total = 6882
