***********************************************
The rDock program is licensed under GNU-LGPLv3.0. http://rdock.sourceforge.net/
Executable:	rbcavity ($Id: //depot/dev/client3/rdock/2013.1/src/exe/rbcavity.cxx#3 $)
Library:	libRbt.so/2013.1/901 2013/11/27
RBT_ROOT:	/home/jovyan/rDock_2013.1_src
RBT_HOME:	/home/jovyan
Current dir:	/home/jovyan/work/pdbbind_v2017_refined/3coz
Date:		Thu May 31 10:44:27 2018
***********************************************

Command line arguments:
-r 03_create_rdock_cavity.prm
-was
-d
RbtMOL2FileSource: INFO Removing orphan hydrogen UNK:ARG_25:H01
RbtMOL2FileSource: INFO Removing orphan hydrogen UNK:ARG_56:H01
RbtMOL2FileSource: INFO Removing orphan hydrogen UNK:ARG_84:1HH1
RbtMOL2FileSource: INFO Removing orphan hydrogen UNK:ARG_84:2HH1
RbtMOL2FileSource: INFO Removing orphan hydrogen UNK:ARG_94:1HH1
RbtMOL2FileSource: INFO Removing orphan hydrogen UNK:ARG_151:1HH1
RbtMOL2FileSource: INFO Removing orphan hydrogen UNK:ARG_151:2HH1
RbtMOL2FileSource: INFO Removing orphan hydrogen UNK:ARG_169:1HH1
RbtMOL2FileSource: INFO Removing orphan hydrogen UNK:ARG_169:2HH1
RbtMOL2FileSource: INFO Removing orphan hydrogen UNK:ARG_207:2HH1
RbtMOL2FileSource: INFO Removing orphan hydrogen UNK:ARG_236:H01
RbtMOL2FileSource: INFO Removing orphan hydrogen UNK:ARG_273:H01

MAPPER
CLASS	RbtLigandSiteMapper
ENABLED	TRUE
GRIDSTEP	0.5
MAX_CAVITIES	1
MIN_VOLUME	100
NAME	MAPPER
RADIUS	6.0
REF_MOL	3coz_ligand.sdf
SMALL_SPHERE	1.0
TRACE	0
VOL_INCR	0.0

RBT_MODEL_ERROR at ../src/lib/RbtMdlFileSource.cxx, line 298
C1 makes a bond with an unknown bond order
RBT_MODEL_ERROR at ../src/lib/RbtMdlFileSource.cxx, line 298
C2 makes a bond with an unknown bond order
RBT_MODEL_ERROR at ../src/lib/RbtMdlFileSource.cxx, line 298
C3 makes a bond with an unknown bond order
RBT_MODEL_ERROR at ../src/lib/RbtMdlFileSource.cxx, line 298
N5 makes a bond with an unknown bond order
RBT_MODEL_ERROR at ../src/lib/RbtMdlFileSource.cxx, line 298
N6 makes a bond with an unknown bond order
RBT_MODEL_ERROR at ../src/lib/RbtMdlFileSource.cxx, line 298
C29 makes a bond with an unknown bond order
**WARNING** RBT_MODEL_ERROR at ../src/lib/RbtMdlFileSource.cxx, line 413
C1 makes too many bonds
**WARNING** RBT_MODEL_ERROR at ../src/lib/RbtMdlFileSource.cxx, line 413
C2 makes too many bonds
**WARNING** RBT_MODEL_ERROR at ../src/lib/RbtMdlFileSource.cxx, line 413
C3 makes too many bonds
**WARNING** RBT_MODEL_ERROR at ../src/lib/RbtMdlFileSource.cxx, line 413
N5 makes too many bonds
**WARNING** RBT_MODEL_ERROR at ../src/lib/RbtMdlFileSource.cxx, line 413
N6 makes too many bonds
**WARNING** RBT_MODEL_ERROR at ../src/lib/RbtMdlFileSource.cxx, line 413
C29 makes too many bonds

DOCKING SITE
Total volume 1146.12 A^3
Cavity #1	Size=9169 points; Vol=1146.12 A^3; Min=(8,2,-10); Max=(23,17.5,13); Center=(15.7106,9.86002,2.52383); Extent=(15,15.5,23)

Cav = 9169; total = 9169
