***********************************************
The rDock program is licensed under GNU-LGPLv3.0. http://rdock.sourceforge.net/
Executable:	rbcavity ($Id: //depot/dev/client3/rdock/2013.1/src/exe/rbcavity.cxx#3 $)
Library:	libRbt.so/2013.1/901 2013/11/27
RBT_ROOT:	/home/jovyan/rDock_2013.1_src
RBT_HOME:	/home/jovyan
Current dir:	/home/jovyan/work/pdbbind_v2017_refined/3ppr
Date:		Thu May 31 10:58:08 2018
***********************************************

Command line arguments:
-r 03_create_rdock_cavity.prm
-was
-d

MAPPER
CLASS	RbtLigandSiteMapper
ENABLED	TRUE
GRIDSTEP	0.5
MAX_CAVITIES	1
MIN_VOLUME	100
NAME	MAPPER
RADIUS	6.0
REF_MOL	3ppr_ligand.sdf
SMALL_SPHERE	1.0
TRACE	0
VOL_INCR	0.0

**WARNING** RBT_MODEL_ERROR at ../src/lib/RbtMdlFileSource.cxx, line 413
C2 makes too many bonds

DOCKING SITE
Total volume 542.625 A^3
Cavity #1	Size=4341 points; Vol=542.625 A^3; Min=(26,7,3); Max=(39.5,21,14.5); Center=(32.5007,13.5902,8.87226); Extent=(13.5,14,11.5)

Cav = 4341; total = 4341
