***********************************************
The rDock program is licensed under GNU-LGPLv3.0. http://rdock.sourceforge.net/
Executable:	rbdock ($Id: //depot/dev/client3/rdock/2013.1/src/exe/rbdock.cxx#4 $)
Library:	libRbt.so/2013.1/901 2013/11/27
RBT_ROOT:	/home/jovyan/rDock_2013.1_src
RBT_HOME:	/home/jovyan
Current dir:	/home/jovyan/work/pdbbind_v2017_refined/3myg
Date:		Thu May 31 12:51:55 2018
***********************************************


Command line args:
 -i 3myg_ligand.sdf
 -r 03_create_rdock_cavity.prm
 -p dock.prm
 -o 04_out_3myg
 -n 1
Reading polar hydrogens only from ligand SD file

DOCKING PROTOCOL:
/home/jovyan/rDock_2013.1_src/data/scripts/dock.prm
Free docking (indexed VDW)

RECEPTOR:
03_create_rdock_cavity.prm
3myg

DOCKING SITE
Total volume 1911 A^3
Cavity #1	Size=15288 points; Vol=1911 A^3; Min=(-13,22.5,70.5); Max=(7.5,45,90.5); Center=(-2.10776,34.1042,82.4569); Extent=(20.5,22.5,20)

RbtMOL2FileSource: INFO Removing orphan hydrogen UNK:ARG_151:1HH1
RbtMOL2FileSource: INFO Removing orphan hydrogen UNK:ARG_151:2HH1
RbtMOL2FileSource: INFO Removing orphan hydrogen UNK:ARG_179:1HH1
RbtMOL2FileSource: INFO Removing orphan hydrogen UNK:ARG_340:1HH1
RbtMOL2FileSource: INFO Removing orphan hydrogen UNK:ARG_340:2HH1
RbtMOL2FileSource: INFO Removing orphan hydrogen UNK:ARG_371:1HH1
RbtMOL2FileSource: INFO Removing orphan hydrogen UNK:ARG_371:2HH1
RbtMOL2FileSource: INFO Removing orphan hydrogen UNK:ARG_375:1HH1
RbtMOL2FileSource: INFO Removing orphan hydrogen UNK:ARG_375:2HH1

No solvent

------------- Terminate filter 0------------

if (SCORE.NRUNS - 0 ) > 0 then
	0.0 
else
	-1.0 
end


**************************************************
RECORD #1
NAME:   3myg_ligand
RANDOM_NUMBER_SEED:           1527771115

END OF RUN
